{
  "CANNONBALL": 142,
  "CANNON_BASE": 186345,
  "CANNON_STAND": 188265,
  "CANNON_BARRELS": 186923,
  "CANNON_FURNACE": 187652,
  "INSECT_REPELLENT": 218,
  "BUCKET_OF_WAX": 437,
  "CANDLE": 201,
  "BRONZE_ARROWTIPS": 4,
  "IRON_ARROWTIPS": 7,
  "STEEL_ARROWTIPS": 30,
  "MITHRIL_ARROWTIPS": 40,
  "ADAMANT_ARROWTIPS": 100,
  "RUNE_ARROWTIPS": 208,
  "OPAL_BOLT_TIPS": 3,
  "PEARL_BOLT_TIPS": 29,
  "BARB_BOLTTIPS": 66,
  "LONGBOW_U": 15,
  "SHORTBOW_U": 3,
  "ARROW_SHAFT": 1,
  "HEADLESS_ARROW": 7,
  "OAK_SHORTBOW_U": 7,
  "OAK_LONGBOW_U": 23,
  "WILLOW_LONGBOW_U": 38,
  "WILLOW_SHORTBOW_U": 25,
  "MAPLE_LONGBOW_U": 57,
  "MAPLE_SHORTBOW_U": 67,
  "YEW_LONGBOW_U": 396,
  "YEW_SHORTBOW_U": 220,
  "MAGIC_LONGBOW_U": 1120,
  "MAGIC_SHORTBOW_U": 832,
  "GUAM_POTION_UNF": 66,
  "MARRENTILL_POTION_UNF": 53,
  "TARROMIN_POTION_UNF": 222,
  "HARRALANDER_POTION_UNF": 872,
  "RANARR_POTION_UNF": 6747,
  "IRIT_POTION_UNF": 858,
  "AVANTOE_POTION_UNF": 1704,
  "KWUARM_POTION_UNF": 1221,
  "CADANTINE_POTION_UNF": 1296,
  "DWARF_WEED_POTION_UNF": 618,
  "TORSTOL_POTION_UNF": 6633,
  "STRENGTH_POTION_4": 232,
  "STRENGTH_POTION_3": 152,
  "STRENGTH_POTION_1": 54,
  "ATTACK_POTION_3": 6,
  "ATTACK_POTION_2": 3,
  "ATTACK_POTION_1": 4,
  "RESTORE_POTION_3": 68,
  "RESTORE_POTION_2": 71,
  "RESTORE_POTION_1": 34,
  "DEFENCE_POTION_3": 223,
  "DEFENCE_POTION_2": 178,
  "DEFENCE_POTION_1": 164,
  "PRAYER_POTION_3": 6327,
  "PRAYER_POTION_2": 4289,
  "PRAYER_POTION_1": 2103,
  "SUPER_ATTACK_3": 255,
  "SUPER_ATTACK_2": 191,
  "SUPER_ATTACK_1": 91,
  "FISHING_POTION_3": 118,
  "FISHING_POTION_2": 181,
  "FISHING_POTION_1": 73,
  "SUPER_STRENGTH_3": 1255,
  "SUPER_STRENGTH_2": 879,
  "SUPER_STRENGTH_1": 453,
  "SUPER_DEFENCE_3": 448,
  "SUPER_DEFENCE_2": 316,
  "RANGING_POTION_3": 763,
  "RANGING_POTION_2": 542,
  "RANGING_POTION_1": 291,
  "ANTIPOISON_3": 188,
  "ANTIPOISON_2": 137,
  "ANTIPOISON_1": 87,
  "SUPERANTIPOISON_3": 283,
  "SUPERANTIPOISON_2": 214,
  "SUPERANTIPOISON_1": 127,
  "WEAPON_POISON": 180,
  "ZAMORAK_BREW_3": 2182,
  "ZAMORAK_BREW_2": 1880,
  "ZAMORAK_BREW_1": 1219,
  "POISON_CHALICE": 880,
  "GRIMY_GUAM_LEAF": 15,
  "GRIMY_MARRENTILL": 13,
  "GRIMY_TARROMIN": 141,
  "GRIMY_HARRALANDER": 758,
  "GRIMY_RANARR_WEED": 6560,
  "GRIMY_IRIT_LEAF": 743,
  "GRIMY_AVANTOE": 1571,
  "GRIMY_KWUARM": 1081,
  "GRIMY_CADANTINE": 1159,
  "GRIMY_DWARF_WEED": 519,
  "GRIMY_TORSTOL": 6475,
  "EYE_OF_NEWT": 4,
  "RED_SPIDERS_EGGS": 68,
  "LIMPWURT_ROOT": 1002,
  "VIAL_OF_WATER": 4,
  "VIAL": 2,
  "SNAPE_GRASS": 53,
  "PESTLE_AND_MORTAR": 296,
  "UNICORN_HORN_DUST": 277,
  "UNICORN_HORN": 236,
  "WHITE_BERRIES": 297,
  "DRAGON_SCALE_DUST": 182,
  "BLUE_DRAGON_SCALE": 669,
  "WINE_OF_ZAMORAK": 1825,
  "JANGERBERRIES": 314,
  "GUAM_LEAF": 25,
  "MARRENTILL": 18,
  "TARROMIN": 154,
  "HARRALANDER": 780,
  "RANARR_WEED": 6582,
  "IRIT_LEAF": 758,
  "AVANTOE": 1581,
  "KWUARM": 1117,
  "CADANTINE": 1219,
  "DWARF_WEED": 519,
  "TORSTOL": 6633,
  "FISH_FOOD": 436,
  "GOBLIN_MAIL": 204,
  "MITHRIL_SEEDS": 104,
  "LOBSTER_POT": 173,
  "SMALL_FISHING_NET": 108,
  "BIG_FISHING_NET": 383,
  "FISHING_ROD": 15,
  "FLY_FISHING_ROD": 30,
  "HARPOON": 69,
  "FISHING_BAIT": 4,
  "FEATHER": 3,
  "SHRIMPS": 14,
  "RAW_SHRIMPS": 27,
  "ANCHOVIES": 96,
  "RAW_ANCHOVIES": 57,
  "SARDINE": 6,
  "RAW_SARDINE": 44,
  "SALMON": 67,
  "RAW_SALMON": 44,
  "TROUT": 25,
  "RAW_TROUT": 19,
  "COD": 15,
  "RAW_COD": 152,
  "RAW_HERRING": 56,
  "HERRING": 8,
  "RAW_PIKE": 64,
  "PIKE": 42,
  "RAW_MACKEREL": 90,
  "MACKEREL": 15,
  "RAW_TUNA": 42,
  "TUNA": 92,
  "RAW_BASS": 230,
  "BASS": 150,
  "RAW_SWORDFISH": 151,
  "SWORDFISH": 175,
  "RAW_LOBSTER": 110,
  "LOBSTER": 102,
  "RAW_SHARK": 615,
  "SHARK": 717,
  "RAW_MANTA_RAY": 983,
  "MANTA_RAY": 1086,
  "RAW_SEA_TURTLE": 796,
  "SEA_TURTLE": 955,
  "SEAWEED": 50,
  "EDIBLE_SEAWEED": 36,
  "CASKET": 824,
  "OYSTER": 49,
  "OYSTER_PEARL": 72,
  "OYSTER_PEARLS": 656,
  "PRIEST_GOWN": 40,
  "PRIEST_GOWN_428": 20,
  "CLAY": 28,
  "COPPER_ORE": 27,
  "TIN_ORE": 27,
  "IRON_ORE": 84,
  "SILVER_ORE": 73,
  "GOLD_ORE": 348,
  "MITHRIL_ORE": 175,
  "ADAMANTITE_ORE": 1372,
  "RUNITE_ORE": 11351,
  "COAL": 137,
  "STRANGE_FRUIT": 495,
  "BONES": 44,
  "BURNT_BONES": 263,
  "BAT_BONES": 277,
  "BIG_BONES": 182,
  "BABYDRAGON_BONES": 704,
  "DRAGON_BONES": 2119,
  "DRUIDS_ROBE": 630,
  "DRUIDS_ROBE_TOP": 978,
  "MONKS_ROBE": 85,
  "MONKS_ROBE_TOP": 282,
  "SHADE_ROBE_TOP": 2083,
  "SHADE_ROBE": 1212,
  "FIRE_RUNE": 5,
  "WATER_RUNE": 5,
  "AIR_RUNE": 5,
  "EARTH_RUNE": 5,
  "MIND_RUNE": 4,
  "BODY_RUNE": 4,
  "DEATH_RUNE": 224,
  "NATURE_RUNE": 216,
  "CHAOS_RUNE": 96,
  "LAW_RUNE": 211,
  "COSMIC_RUNE": 122,
  "BLOOD_RUNE": 339,
  "SOUL_RUNE": 146,
  "UNPOWERED_ORB": 82,
  "FIRE_ORB": 1356,
  "WATER_ORB": 1363,
  "AIR_ORB": 1174,
  "EARTH_ORB": 1209,
  "BLUE_WIZARD_ROBE": 2122,
  "BLUE_WIZARD_HAT": 317,
  "BLACK_ROBE": 1553,
  "TINDERBOX": 84,
  "ASHES": 29,
  "UNLIT_TORCH": 1,
  "SHIP_TICKET": 87,
  "PINK_BOOTS": 569,
  "GREEN_BOOTS": 636,
  "BLUE_BOOTS": 682,
  "CREAM_BOOTS": 519,
  "TURQUOISE_BOOTS": 534,
  "PINK_ROBE_TOP": 371,
  "GREEN_ROBE_TOP": 550,
  "BLUE_ROBE_TOP": 547,
  "CREAM_ROBE_TOP": 434,
  "TURQUOISE_ROBE_TOP": 127,
  "PINK_ROBE_BOTTOMS": 140,
  "GREEN_ROBE_BOTTOMS": 403,
  "BLUE_ROBE_BOTTOMS": 493,
  "CREAM_ROBE_BOTTOMS": 212,
  "TURQUOISE_ROBE_BOTTOMS": 421,
  "PINK_HAT": 715,
  "GREEN_HAT": 515,
  "BLUE_HAT": 529,
  "CREAM_HAT": 718,
  "TURQUOISE_HAT": 398,
  "GNOMEBALL": 4898,
  "CADAVA_BERRIES": 65,
  "BRONZE_THROWNAXE": 9,
  "IRON_THROWNAXE": 38,
  "STEEL_THROWNAXE": 23,
  "MITHRIL_THROWNAXE": 127,
  "ADAMANT_THROWNAXE": 166,
  "RUNE_THROWNAXE": 189,
  "BRONZE_DART": 15,
  "IRON_DART": 10,
  "STEEL_DART": 6,
  "MITHRIL_DART": 17,
  "ADAMANT_DART": 124,
  "RUNE_DART": 1086,
  "BRONZE_DART_P": 11,
  "IRON_DART_P": 18,
  "STEEL_DART_P": 22,
  "MITHRIL_DART_P": 111,
  "ADAMANT_DART_P": 123,
  "RUNE_DART_P": 1087,
  "BRONZE_DART_TIP": 25,
  "IRON_DART_TIP": 27,
  "STEEL_DART_TIP": 42,
  "MITHRIL_DART_TIP": 72,
  "ADAMANT_DART_TIP": 211,
  "RUNE_DART_TIP": 1214,
  "BRONZE_JAVELIN": 2,
  "IRON_JAVELIN": 6,
  "STEEL_JAVELIN": 5,
  "MITHRIL_JAVELIN": 29,
  "ADAMANT_JAVELIN": 56,
  "RUNE_JAVELIN": 163,
  "BRONZE_JAVELIN_P": 7,
  "IRON_JAVELIN_P": 23,
  "STEEL_JAVELIN_P": 83,
  "MITHRIL_JAVELIN_P": 39,
  "ADAMANT_JAVELIN_P": 121,
  "RUNE_JAVELIN_P": 372,
  "CROSSBOW": 93,
  "LONGBOW": 54,
  "SHORTBOW": 34,
  "OAK_SHORTBOW": 60,
  "OAK_LONGBOW": 69,
  "WILLOW_LONGBOW": 134,
  "WILLOW_SHORTBOW": 100,
  "MAPLE_LONGBOW": 220,
  "MAPLE_SHORTBOW": 205,
  "YEW_LONGBOW": 579,
  "YEW_SHORTBOW": 363,
  "MAGIC_LONGBOW": 1323,
  "MAGIC_SHORTBOW": 822,
  "IRON_KNIFE": 29,
  "BRONZE_KNIFE": 24,
  "STEEL_KNIFE": 45,
  "MITHRIL_KNIFE": 130,
  "ADAMANT_KNIFE": 423,
  "RUNE_KNIFE": 259,
  "BLACK_KNIFE": 40,
  "BRONZE_KNIFE_P": 38,
  "IRON_KNIFE_P": 158,
  "STEEL_KNIFE_P": 85,
  "MITHRIL_KNIFE_P": 255,
  "BLACK_KNIFE_P": 146,
  "ADAMANT_KNIFE_P": 538,
  "RUNE_KNIFE_P": 365,
  "BRONZE_BOLTS": 2,
  "BRONZE_BOLTS_P": 87,
  "OPAL_BOLTS": 10,
  "PEARL_BOLTS": 58,
  "BARBED_BOLTS": 67,
  "BRONZE_ARROW": 4,
  "BRONZE_ARROW_P": 49,
  "IRON_ARROW": 6,
  "IRON_ARROW_P": 33,
  "STEEL_ARROW": 33,
  "STEEL_ARROW_P": 33,
  "MITHRIL_ARROW": 32,
  "MITHRIL_ARROW_P": 110,
  "ADAMANT_ARROW": 58,
  "ADAMANT_ARROW_P": 156,
  "RUNE_ARROW": 91,
  "RUNE_ARROW_P": 170,
  "KNIFE": 75,
  "BEAR_FUR": 60,
  "SILK": 23,
  "SPADE": 174,
  "ROPE": 52,
  "GREY_WOLF_FUR": 29,
  "PLANK": 167,
  "CHRISTMAS_CRACKER": 26553,
  "PAPYRUS": 191,
  "CHARCOAL": 251,
  "MACHETE": 280,
  "DISK_OF_RETURNING": 5726,
  "BRASS_KEY": 277,
  "TOOTH_HALF_OF_KEY": 9454,
  "LOOP_HALF_OF_KEY": 11203,
  "CRYSTAL_KEY": 21133,
  "MUDDY_KEY": 4117,
  "SINISTER_KEY": 29132,
  "WHITE_APRON": 28,
  "RED_CAPE": 54,
  "BRASS_NECKLACE": 64,
  "BLUE_SKIRT": 113,
  "PINK_SKIRT": 36,
  "BLACK_SKIRT": 26,
  "WIZARD_HAT": 220,
  "BLACK_CAPE": 366,
  "BLUE_CAPE": 272,
  "YELLOW_CAPE": 294,
  "RIGHT_EYE_PATCH": 285,
  "GREEN_CAPE": 505,
  "PURPLE_CAPE": 668,
  "ORANGE_CAPE": 772,
  "ZAMORAK_MONK_BOTTOM": 1742,
  "ZAMORAK_MONK_TOP": 856,
  "RED_PARTYHAT": 3687,
  "YELLOW_PARTYHAT": 3319,
  "BLUE_PARTYHAT": 20886,
  "GREEN_PARTYHAT": 3372,
  "PURPLE_PARTYHAT": 4608,
  "WHITE_PARTYHAT": 4821,
  "SANTA_HAT": 13165,
  "GREEN_HALLOWEEN_MASK": 7515,
  "BLUE_HALLOWEEN_MASK": 6359,
  "RED_HALLOWEEN_MASK": 12651,
  "LEATHER_GLOVES": 6,
  "LEATHER_BOOTS": 36,
  "LEATHER_VAMBRACES": 3,
  "GREEN_DHIDE_VAMB": 1310,
  "IRON_PLATELEGS": 118,
  "STEEL_PLATELEGS": 392,
  "MITHRIL_PLATELEGS": 1375,
  "ADAMANT_PLATELEGS": 3573,
  "BRONZE_PLATELEGS": 68,
  "BLACK_PLATELEGS": 1147,
  "RUNE_PLATELEGS": 37955,
  "IRON_PLATESKIRT": 46,
  "STEEL_PLATESKIRT": 395,
  "MITHRIL_PLATESKIRT": 1444,
  "BRONZE_PLATESKIRT": 50,
  "BLACK_PLATESKIRT": 1457,
  "ADAMANT_PLATESKIRT": 4280,
  "RUNE_PLATESKIRT": 37965,
  "LEATHER_CHAPS": 3,
  "STUDDED_CHAPS": 269,
  "GREEN_DHIDE_CHAPS": 2145,
  "IRON_CHAINBODY": 104,
  "BRONZE_CHAINBODY": 39,
  "STEEL_CHAINBODY": 243,
  "BLACK_CHAINBODY": 1670,
  "MITHRIL_CHAINBODY": 966,
  "ADAMANT_CHAINBODY": 2634,
  "RUNE_CHAINBODY": 29575,
  "IRON_PLATEBODY": 120,
  "BRONZE_PLATEBODY": 45,
  "STEEL_PLATEBODY": 963,
  "MITHRIL_PLATEBODY": 2805,
  "ADAMANT_PLATEBODY": 9569,
  "BLACK_PLATEBODY": 2797,
  "RUNE_PLATEBODY": 38601,
  "LEATHER_BODY": 12,
  "HARDLEATHER_BODY": 11,
  "STUDDED_BODY": 376,
  "GREEN_DHIDE_BODY": 4263,
  "IRON_MED_HELM": 26,
  "BRONZE_MED_HELM": 40,
  "STEEL_MED_HELM": 76,
  "MITHRIL_MED_HELM": 279,
  "ADAMANT_MED_HELM": 926,
  "RUNE_MED_HELM": 11176,
  "DRAGON_MED_HELM": 59262,
  "BLACK_MED_HELM": 295,
  "IRON_FULL_HELM": 47,
  "BRONZE_FULL_HELM": 31,
  "STEEL_FULL_HELM": 152,
  "MITHRIL_FULL_HELM": 684,
  "ADAMANT_FULL_HELM": 1857,
  "RUNE_FULL_HELM": 20695,
  "BLACK_FULL_HELM": 479,
  "LEATHER_COWL": 3,
  "COIF": 28,
  "WOODEN_SHIELD": 92,
  "BRONZE_SQ_SHIELD": 26,
  "IRON_SQ_SHIELD": 24,
  "STEEL_SQ_SHIELD": 190,
  "BLACK_SQ_SHIELD": 481,
  "MITHRIL_SQ_SHIELD": 717,
  "ADAMANT_SQ_SHIELD": 2042,
  "RUNE_SQ_SHIELD": 22617,
  "DRAGON_SQ_SHIELD": 300028,
  "BRONZE_KITESHIELD": 29,
  "IRON_KITESHIELD": 54,
  "STEEL_KITESHIELD": 296,
  "BLACK_KITESHIELD": 1031,
  "MITHRIL_KITESHIELD": 1106,
  "ADAMANT_KITESHIELD": 2974,
  "RUNE_KITESHIELD": 32179,
  "IRON_DAGGER": 10,
  "BRONZE_DAGGER": 36,
  "STEEL_DAGGER": 23,
  "MITHRIL_DAGGER": 53,
  "ADAMANT_DAGGER": 309,
  "RUNE_DAGGER": 4464,
  "DRAGON_DAGGER": 17563,
  "BLACK_DAGGER": 72,
  "IRON_DAGGER_P": 230,
  "BRONZE_DAGGER_P": 241,
  "STEEL_DAGGER_P": 427,
  "MITHRIL_DAGGER_P": 420,
  "ADAMANT_DAGGER_P": 625,
  "RUNE_DAGGER_P": 5492,
  "DRAGON_DAGGER_P": 17662,
  "BLACK_DAGGER_P": 563,
  "BRONZE_SPEAR": 402,
  "IRON_SPEAR": 35,
  "STEEL_SPEAR": 277,
  "MITHRIL_SPEAR": 306,
  "ADAMANT_SPEAR": 1015,
  "RUNE_SPEAR": 12056,
  "DRAGON_SPEAR": 37819,
  "BRONZE_SPEAR_P": 2757,
  "IRON_SPEAR_P": 1162,
  "STEEL_SPEAR_P": 874,
  "MITHRIL_SPEAR_P": 300,
  "ADAMANT_SPEAR_P": 968,
  "RUNE_SPEAR_P": 21442,
  "DRAGON_SPEAR_P": 41955,
  "BRONZE_PICKAXE": 88,
  "IRON_PICKAXE": 81,
  "STEEL_PICKAXE": 1048,
  "ADAMANT_PICKAXE": 1781,
  "MITHRIL_PICKAXE": 448,
  "RUNE_PICKAXE": 18715,
  "BRONZE_SWORD": 26,
  "IRON_SWORD": 21,
  "STEEL_SWORD": 79,
  "BLACK_SWORD": 176,
  "MITHRIL_SWORD": 299,
  "ADAMANT_SWORD": 1106,
  "RUNE_SWORD": 12214,
  "BRONZE_LONGSWORD": 25,
  "IRON_LONGSWORD": 18,
  "STEEL_LONGSWORD": 110,
  "BLACK_LONGSWORD": 353,
  "MITHRIL_LONGSWORD": 570,
  "ADAMANT_LONGSWORD": 1689,
  "RUNE_LONGSWORD": 18765,
  "DRAGON_LONGSWORD": 59479,
  "BRONZE_2H_SWORD": 54,
  "IRON_2H_SWORD": 51,
  "STEEL_2H_SWORD": 387,
  "BLACK_2H_SWORD": 1026,
  "MITHRIL_2H_SWORD": 1261,
  "ADAMANT_2H_SWORD": 3581,
  "RUNE_2H_SWORD": 37936,
  "BRONZE_SCIMITAR": 20,
  "IRON_SCIMITAR": 25,
  "STEEL_SCIMITAR": 80,
  "BLACK_SCIMITAR": 1334,
  "MITHRIL_SCIMITAR": 409,
  "ADAMANT_SCIMITAR": 1487,
  "RUNE_SCIMITAR": 15092,
  "IRON_WARHAMMER": 34,
  "BRONZE_WARHAMMER": 28,
  "STEEL_WARHAMMER": 176,
  "BLACK_WARHAMMER": 456,
  "MITHRIL_WARHAMMER": 764,
  "ADAMANT_WARHAMMER": 2264,
  "RUNE_WARHAMMER": 24673,
  "IRON_AXE": 22,
  "BRONZE_AXE": 68,
  "STEEL_AXE": 21,
  "MITHRIL_AXE": 104,
  "ADAMANT_AXE": 570,
  "RUNE_AXE": 7304,
  "BLACK_AXE": 353,
  "IRON_BATTLEAXE": 24,
  "STEEL_BATTLEAXE": 178,
  "BLACK_BATTLEAXE": 1507,
  "MITHRIL_BATTLEAXE": 784,
  "ADAMANT_BATTLEAXE": 2198,
  "RUNE_BATTLEAXE": 24560,
  "BRONZE_BATTLEAXE": 25,
  "DRAGON_BATTLEAXE": 119468,
  "STAFF": 50,
  "STAFF_OF_AIR": 1587,
  "STAFF_OF_WATER": 1737,
  "STAFF_OF_EARTH": 982,
  "STAFF_OF_FIRE": 1516,
  "MAGIC_STAFF": 57,
  "BATTLESTAFF": 8480,
  "FIRE_BATTLESTAFF": 9024,
  "WATER_BATTLESTAFF": 9037,
  "AIR_BATTLESTAFF": 9019,
  "EARTH_BATTLESTAFF": 9018,
  "MYSTIC_FIRE_STAFF": 25392,
  "MYSTIC_WATER_STAFF": 25179,
  "MYSTIC_AIR_STAFF": 25198,
  "MYSTIC_EARTH_STAFF": 25240,
  "IRON_MACE": 16,
  "BRONZE_MACE": 27,
  "STEEL_MACE": 27,
  "BLACK_MACE": 168,
  "MITHRIL_MACE": 140,
  "ADAMANT_MACE": 643,
  "RUNE_MACE": 8269,
  "DRAGON_MACE": 29522,
  "RUNE_ESSENCE": 14,
  "AIR_TALISMAN": 101,
  "EARTH_TALISMAN": 341,
  "FIRE_TALISMAN": 3524,
  "WATER_TALISMAN": 187,
  "BODY_TALISMAN": 561,
  "MIND_TALISMAN": 2739,
  "CHAOS_TALISMAN": 512,
  "COSMIC_TALISMAN": 482,
  "DEATH_TALISMAN": 9605,
  "NATURE_TALISMAN": 737,
  "ARCHERY_TICKET": 10,
  "RED_BEAD": 1039,
  "YELLOW_BEAD": 1051,
  "BLACK_BEAD": 839,
  "WHITE_BEAD": 1232,
  "AMULET_OF_ACCURACY": 1073,
  "LOGS": 23,
  "MAGIC_LOGS": 1070,
  "YEW_LOGS": 318,
  "MAPLE_LOGS": 8,
  "WILLOW_LOGS": 14,
  "OAK_LOGS": 31,
  "LOCKPICK": 253,
  "STEEL_NAILS": 22,
  "ANTI_DRAGON_SHIELD": 80,
  "GARLIC": 26,
  "SEASONED_SARDINE": 408,
  "DOOGLE_LEAVES": 95,
  "RING_MOULD": 34,
  "AMULET_MOULD": 59,
  "NECKLACE_MOULD": 58,
  "HOLY_MOULD": 7,
  "DIAMOND": 1994,
  "RUBY": 983,
  "EMERALD": 537,
  "SAPPHIRE": 502,
  "OPAL": 255,
  "JADE": 461,
  "RED_TOPAZ": 3407,
  "DRAGONSTONE": 12003,
  "UNCUT_DIAMOND": 2899,
  "UNCUT_RUBY": 1437,
  "UNCUT_EMERALD": 809,
  "UNCUT_SAPPHIRE": 636,
  "UNCUT_OPAL": 184,
  "UNCUT_JADE": 323,
  "UNCUT_RED_TOPAZ": 3042,
  "UNCUT_DRAGONSTONE": 14072,
  "GOLD_RING": 120,
  "SAPPHIRE_RING": 664,
  "EMERALD_RING": 702,
  "RUBY_RING": 1081,
  "DIAMOND_RING": 2016,
  "DRAGONSTONE_RING": 11995,
  "GOLD_NECKLACE": 112,
  "SAPPHIRE_NECKLACE": 647,
  "EMERALD_NECKLACE": 709,
  "RUBY_NECKLACE": 1156,
  "DIAMOND_NECKLACE": 2058,
  "DRAGON_NECKLACE": 11811,
  "GOLD_AMULET_U": 119,
  "SAPPHIRE_AMULET_U": 608,
  "EMERALD_AMULET_U": 651,
  "RUBY_AMULET_U": 1079,
  "DIAMOND_AMULET_U": 1985,
  "DRAGONSTONE_AMULET_U": 12181,
  "GOLD_AMULET": 101,
  "SAPPHIRE_AMULET": 507,
  "EMERALD_AMULET": 689,
  "RUBY_AMULET": 1093,
  "DIAMOND_AMULET": 2108,
  "DRAGONSTONE_AMULET": 12139,
  "AMULET_OF_GLORY": 12265,
  "UNSTRUNG_SYMBOL": 107,
  "UNBLESSED_SYMBOL": 69,
  "HOLY_SYMBOL": 344,
  "UNSTRUNG_EMBLEM": 241,
  "UNPOWERED_SYMBOL": 233,
  "UNHOLY_SYMBOL": 294,
  "AMULET_OF_STRENGTH": 1149,
  "AMULET_OF_MAGIC": 675,
  "AMULET_OF_DEFENCE": 885,
  "AMULET_OF_POWER": 2301,
  "NEEDLE": 24,
  "THREAD": 5,
  "SHEARS": 26,
  "WOOL": 101,
  "COWHIDE": 153,
  "LEATHER": 198,
  "HARD_LEATHER": 192,
  "GREEN_DRAGON_LEATHER": 1640,
  "BLACK_DRAGONHIDE": 3026,
  "RED_DRAGONHIDE": 2400,
  "BLUE_DRAGONHIDE": 1825,
  "GREEN_DRAGONHIDE": 1459,
  "CHISEL": 58,
  "BROWN_APRON": 42,
  "BALL_OF_WOOL": 33,
  "SOFT_CLAY": 57,
  "RED_DYE": 241,
  "YELLOW_DYE": 170,
  "BLUE_DYE": 249,
  "ORANGE_DYE": 663,
  "GREEN_DYE": 420,
  "PURPLE_DYE": 361,
  "MOLTEN_GLASS": 147,
  "BOW_STRING": 59,
  "FLAX": 2,
  "SODA_ASH": 57,
  "BUCKET_OF_SAND": 51,
  "GLASSBLOWING_PIPE": 104,
  "UNFIRED_POT": 57,
  "UNFIRED_PIE_DISH": 160,
  "UNFIRED_BOWL": 102,
  "WOAD_LEAF": 54,
  "BRONZE_WIRE": 144,
  "WATERSKIN_4": 103,
  "WATERSKIN_0": 43,
  "DESERT_SHIRT": 127,
  "DESERT_ROBE": 94,
  "DESERT_BOOTS": 161,
  "SHANTAY_PASS": 19,
  "RAW_UGTHANKI_MEAT": 318,
  "UGTHANKI_MEAT": 134,
  "PITTA_BREAD": 14,
  "CHOPPED_TOMATO": 13,
  "CHOPPED_ONION": 13,
  "CHOPPED_UGTHANKI": 1,
  "ONION_TOMATO": 5,
  "UGTHANKI_ONION": 2,
  "UGTHANKI_TOMATO": 1,
  "KEBAB_MIX": 154,
  "UGTHANKI_KEBAB": 658,
  "UGTHANKI_KEBAB_1885": 658,
  "CAKE_TIN": 49,
  "CAKE": 152,
  "CHOCOLATE_CAKE": 176,
  "ASGARNIAN_ALE": 84,
  "WIZARDS_MIND_BOMB": 84,
  "GREENMANS_ALE": 432,
  "DRAGON_BITTER": 312,
  "DWARVEN_STOUT": 109,
  "GROG": 332,
  "BEER": 71,
  "BEER_GLASS": 29,
  "BOWL_OF_WATER": 37,
  "BOWL": 28,
  "BUCKET": 7,
  "BUCKET_OF_MILK": 26,
  "BUCKET_OF_WATER": 18,
  "POT": 8,
  "POT_OF_FLOUR": 88,
  "JUG": 3,
  "JUG_OF_WATER": 14,
  "SWAMP_TAR": 8,
  "SWAMP_PASTE": 83,
  "POTATO": 26,
  "EGG": 45,
  "GRAIN": 12,
  "CHEFS_HAT": 228,
  "REDBERRIES": 29,
  "PASTRY_DOUGH": 137,
  "COOKING_APPLE": 135,
  "ONION": 19,
  "PUMPKIN": 5044,
  "EASTER_EGG": 1442,
  "BANANA": 54,
  "CABBAGE": 38,
  "CABBAGE_1967": 38,
  "SPINACH_ROLL": 91,
  "KEBAB": 64,
  "CHOCOLATE_BAR": 55,
  "CHOCOLATE_DUST": 71,
  "CUP_OF_TEA_1978": 11,
  "EMPTY_CUP": 10,
  "TOMATO": 43,
  "CHEESE": 36,
  "GRAPES": 122,
  "HALF_FULL_WINE_JUG": 12821,
  "JUG_OF_WINE": 3,
  "STEW": 328,
  "SPICE": 93,
  "CURRY": 454,
  "VODKA": 214,
  "WHISKY": 51,
  "GIN": 41,
  "BRANDY": 33,
  "COCKTAIL_GUIDE": 24,
  "COCKTAIL_SHAKER": 103,
  "COCKTAIL_GLASS": 178,
  "PREMADE_BLURB_SP": 257,
  "PREMADE_CHOC_SDY": 27,
  "PREMADE_DR_DRAGON": 23,
  "PREMADE_FR_BLAST": 22,
  "PREMADE_P_PUNCH": 22,
  "PREMADE_SGG": 22,
  "PREMADE_WIZ_BLZD": 20,
  "PINEAPPLE_PUNCH": 29,
  "WIZARD_BLIZZARD": 29,
  "BLURBERRY_SPECIAL": 3353,
  "CHOC_SATURDAY": 24,
  "SHORT_GREEN_GUY": 27,
  "FRUIT_BLAST": 1755,
  "DRUNK_DRAGON": 26,
  "LEMON": 164,
  "LEMON_CHUNKS": 129,
  "LEMON_SLICES": 86,
  "ORANGE": 73,
  "ORANGE_CHUNKS": 138,
  "ORANGE_SLICES": 121,
  "PINEAPPLE": 114,
  "PINEAPPLE_CHUNKS": 130,
  "PINEAPPLE_RING": 77,
  "LIME": 30,
  "LIME_CHUNKS": 180,
  "LIME_SLICES": 174,
  "DWELLBERRIES": 53,
  "EQUA_LEAVES": 198,
  "POT_OF_CREAM": 17,
  "RAW_BEEF": 59,
  "RAW_RAT_MEAT": 40,
  "RAW_BEAR_MEAT": 250,
  "RAW_CHICKEN": 46,
  "COOKED_CHICKEN": 53,
  "COOKED_MEAT": 52,
  "SWAMP_TOAD": 449,
  "TOADS_LEGS": 565,
  "KING_WORM": 286,
  "BATTA_TIN": 5,
  "CRUNCHY_TRAY": 35,
  "GNOMEBOWL_MOULD": 108,
  "GIANNES_COOK_BOOK": 250,
  "GNOME_SPICE": 68,
  "GIANNE_DOUGH": 5,
  "CHOCOLATE_BOMB": 806,
  "TANGLED_TOADS_LEGS": 2778,
  "WORM_HOLE": 1628,
  "VEG_BALL": 856,
  "ROCK_CLIMBING_BOOTS": 82610,
  "WORM_CRUNCHIES": 1292,
  "CHOCCHIP_CRUNCHIES": 1248,
  "SPICY_CRUNCHIES": 499,
  "TOAD_CRUNCHIES": 3590,
  "PREMADE_WM_BATTA": 40,
  "PREMADE_TD_BATTA": 40,
  "PREMADE_C_PLUST_BATTA": 41,
  "PREMADE_FRT_BATTA": 40,
  "PREMADE_VEG_BATTA": 40,
  "PREMADE_CHOC_BOMB": 93,
  "PREMADE_TTL": 71,
  "PREMADE_WORM_HOLE": 43,
  "PREMADE_VEG_BALL": 44,
  "PREMADE_WM_CRUN": 40,
  "PREMADE_CH_CRUNCH": 41,
  "PREMADE_SY_CRUNCH": 40,
  "PREMADE_TD_CRUNCH": 425,
  "WORM_BATTA": 852,
  "TOAD_BATTA": 603,
  "CHEESE_PLUSTOM_BATTA": 835,
  "FRUIT_BATTA": 1174,
  "VEGETABLE_BATTA": 1098,
  "PIZZA_BASE": 138,
  "PLAIN_PIZZA": 397,
  "MEAT_PIZZA": 402,
  "ANCHOVY_PIZZA": 532,
  "PINEAPPLE_PIZZA": 654,
  "BREAD_DOUGH": 136,
  "BREAD": 152,
  "PIE_DISH": 35,
  "PIE_SHELL": 364,
  "UNCOOKED_APPLE_PIE": 562,
  "UNCOOKED_MEAT_PIE": 508,
  "UNCOOKED_BERRY_PIE": 463,
  "APPLE_PIE": 138,
  "REDBERRY_PIE": 17,
  "MEAT_PIE": 53,
  "RAW_OOMLIE": 1565,
  "WRAPPED_OOMLIE": 4884,
  "COOKED_OOMLIE_WRAP": 7253,
  "HAMMER": 50,
  "BRONZE_BAR": 103,
  "IRON_BAR": 154,
  "STEEL_BAR": 379,
  "SILVER_BAR": 103,
  "GOLD_BAR": 83,
  "MITHRIL_BAR": 675,
  "ADAMANTITE_BAR": 2093,
  "RUNITE_BAR": 12411,
  "SHIELD_LEFT_HALF": 65511,
  "SHIELD_RIGHT_HALF": 759027,
  "STEEL_STUDS": 332,
  "ATTACK_POTION_4": 7,
  "RESTORE_POTION_4": 104,
  "DEFENCE_POTION_4": 344,
  "PRAYER_POTION_4": 8502,
  "SUPER_ATTACK_4": 363,
  "FISHING_POTION_4": 120,
  "SUPER_STRENGTH_4": 1687,
  "SUPER_DEFENCE_4": 754,
  "RANGING_POTION_4": 1033,
  "ANTIPOISON_4": 245,
  "SUPERANTIPOISON_4": 432,
  "ZAMORAK_BREW_4": 3378,
  "ANTIFIRE_POTION_4": 141,
  "ANTIFIRE_POTION_3": 79,
  "ANTIFIRE_POTION_2": 112,
  "ANTIFIRE_POTION_1": 53,
  "ASSORTED_FLOWERS": 52,
  "RED_FLOWERS": 16,
  "BLUE_FLOWERS": 21,
  "YELLOW_FLOWERS": 21,
  "PURPLE_FLOWERS": 18,
  "ORANGE_FLOWERS": 30,
  "MIXED_FLOWERS": 16,
  "WHITE_FLOWERS": 177292,
  "BLACK_FLOWERS": 38457,
  "LANTADYME": 1204,
  "LANTADYME_POTION_UNF": 1348,
  "GRIMY_LANTADYME": 1172,
  "BLUE_DHIDE_VAMB": 1520,
  "RED_DHIDE_VAMB": 1891,
  "BLACK_DHIDE_VAMB": 2427,
  "BLUE_DHIDE_CHAPS": 2265,
  "RED_DHIDE_CHAPS": 2795,
  "BLACK_DHIDE_CHAPS": 5467,
  "BLUE_DHIDE_BODY": 5169,
  "RED_DHIDE_BODY": 6240,
  "BLACK_DHIDE_BODY": 7479,
  "BLUE_DRAGON_LEATHER": 2019,
  "RED_DRAGON_LEATHER": 2596,
  "BLACK_DRAGON_LEATHER": 3238,
  "RAW_SHRIMPS_2514": 27,
  "POT_OF_FLOUR_2516": 88,
  "BROWN_TOY_HORSEY": 202,
  "WHITE_TOY_HORSEY": 289,
  "BLACK_TOY_HORSEY": 174,
  "GREY_TOY_HORSEY": 168,
  "BONES_2530": 44,
  "RING_OF_RECOIL": 916,
  "RING_OF_FORGING": 1042,
  "RING_OF_LIFE": 1917,
  "RING_OF_WEALTH": 12308,
  "RANGER_BOOTS": 30246204,
  "WIZARD_BOOTS": 339691,
  "ROBIN_HOOD_HAT": 2234299,
  "BLACK_PLATEBODY_T": 28614,
  "BLACK_PLATELEGS_T": 20827,
  "BLACK_FULL_HELM_T": 27713,
  "BLACK_KITESHIELD_T": 32640,
  "BLACK_PLATEBODY_G": 214334,
  "BLACK_PLATELEGS_G": 75079,
  "BLACK_FULL_HELM_G": 77091,
  "BLACK_KITESHIELD_G": 220651,
  "ADAMANT_PLATEBODY_T": 9457,
  "ADAMANT_PLATELEGS_T": 3390,
  "ADAMANT_KITESHIELD_T": 3100,
  "ADAMANT_FULL_HELM_T": 2373,
  "ADAMANT_PLATEBODY_G": 24769,
  "ADAMANT_PLATELEGS_G": 5796,
  "ADAMANT_KITESHIELD_G": 13953,
  "ADAMANT_FULL_HELM_G": 17246,
  "RUNE_PLATEBODY_G": 68263,
  "RUNE_PLATELEGS_G": 73174,
  "RUNE_FULL_HELM_G": 72677,
  "RUNE_KITESHIELD_G": 85868,
  "RUNE_PLATEBODY_T": 39559,
  "RUNE_PLATELEGS_T": 39787,
  "RUNE_FULL_HELM_T": 26631,
  "RUNE_KITESHIELD_T": 36723,
  "HIGHWAYMAN_MASK": 24999,
  "BLUE_BERET": 21429,
  "BLACK_BERET": 63808,
  "WHITE_BERET": 51649,
  "TAN_CAVALIER": 1850,
  "DARK_CAVALIER": 3344,
  "BLACK_CAVALIER": 17652,
  "RED_HEADBAND": 1059,
  "BLACK_HEADBAND": 3445,
  "BROWN_HEADBAND": 731,
  "PIRATES_HAT": 10083,
  "ZAMORAK_PLATEBODY": 49907,
  "ZAMORAK_PLATELEGS": 44213,
  "ZAMORAK_FULL_HELM": 294905,
  "ZAMORAK_KITESHIELD": 58279,
  "SARADOMIN_PLATEBODY": 71527,
  "SARADOMIN_PLATELEGS": 57914,
  "SARADOMIN_FULL_HELM": 58655,
  "SARADOMIN_KITESHIELD": 72413,
  "GUTHIX_PLATEBODY": 41236,
  "GUTHIX_PLATELEGS": 42016,
  "GUTHIX_FULL_HELM": 27567,
  "GUTHIX_KITESHIELD": 35793,
  "WOLF_BONES": 468,
  "WOLFBONE_ARROWTIPS": 106,
  "ACHEY_TREE_LOGS": 193,
  "OGRE_ARROW_SHAFT": 60,
  "FLIGHTED_OGRE_ARROW": 78,
  "OGRE_ARROW": 208,
  "RAW_CHOMPY": 1853,
  "COOKED_CHOMPY": 35,
  "ELEMENTAL_SHIELD": 936,
  "GREY_BOOTS": 999,
  "GREY_ROBE_TOP": 895,
  "GREY_ROBE_BOTTOMS": 885,
  "GREY_HAT": 969,
  "GREY_GLOVES": 990,
  "RED_BOOTS": 950,
  "RED_ROBE_TOP": 873,
  "RED_ROBE_BOTTOMS": 949,
  "RED_HAT": 1051,
  "RED_GLOVES": 941,
  "YELLOW_BOOTS": 930,
  "YELLOW_ROBE_TOP": 706,
  "YELLOW_ROBE_BOTTOMS": 748,
  "YELLOW_HAT": 985,
  "YELLOW_GLOVES": 942,
  "TEAL_BOOTS": 802,
  "TEAL_ROBE_TOP": 675,
  "TEAL_ROBE_BOTTOMS": 746,
  "TEAL_HAT": 891,
  "TEAL_GLOVES": 291,
  "PURPLE_BOOTS": 800,
  "PURPLE_ROBE_TOP": 685,
  "PURPLE_ROBE_BOTTOMS": 786,
  "PURPLE_HAT": 1074,
  "PURPLE_GLOVES": 857,
  "MOONLIGHT_MEAD": 130,
  "SILVER_SICKLE": 105,
  "MORT_MYRE_FUNGUS": 539,
  "MORT_MYRE_STEM": 206,
  "MORT_MYRE_PEAR": 424,
  "SICKLE_MOULD": 174,
  "PIRATES_HOOK": 4298939,
  "TOADFLAX": 1696,
  "SNAPDRAGON": 7669,
  "TOADFLAX_POTION_UNF": 1806,
  "SNAPDRAGON_POTION_UNF": 7891,
  "ENERGY_POTION_4": 588,
  "ENERGY_POTION_3": 419,
  "ENERGY_POTION_2": 269,
  "ENERGY_POTION_1": 138,
  "SUPER_ENERGY_4": 2207,
  "SUPER_ENERGY_3": 1502,
  "SUPER_ENERGY_2": 1054,
  "SUPER_ENERGY_1": 520,
  "SUPER_RESTORE_4": 9305,
  "SUPER_RESTORE_3": 6876,
  "SUPER_RESTORE_2": 4516,
  "SUPER_RESTORE_1": 2271,
  "AGILITY_POTION_4": 530,
  "AGILITY_POTION_3": 368,
  "AGILITY_POTION_2": 468,
  "AGILITY_POTION_1": 291,
  "MAGIC_POTION_4": 131,
  "MAGIC_POTION_3": 90,
  "MAGIC_POTION_2": 58,
  "MAGIC_POTION_1": 39,
  "GRIMY_TOADFLAX": 1673,
  "GRIMY_SNAPDRAGON": 7561,
  "LAVA_BATTLESTAFF": 9631,
  "MYSTIC_LAVA_STAFF": 26235,
  "BLACK_DART": 717,
  "BLACK_DART_P": 19,
  "BRONZE_CLAWS": 32,
  "IRON_CLAWS": 38,
  "STEEL_CLAWS": 33,
  "BLACK_CLAWS": 409,
  "MITHRIL_CLAWS": 119,
  "ADAMANT_CLAWS": 1925,
  "RUNE_CLAWS": 7061,
  "CLIMBING_BOOTS": 711,
  "SPIKED_BOOTS": 1951,
  "GRANITE_SHIELD": 33453,
  "SHAIKAHAN_BONES": 5897,
  "JOGRE_BONES": 799,
  "POTATO_CACTUS": 815,
  "DRAGON_CHAINBODY": 732728,
  "RAW_KARAMBWAN": 506,
  "COOKED_KARAMBWAN": 614,
  "KARAMBWAN_VESSEL": 777,
  "KARAMBWAN_VESSEL_3159": 777,
  "SLICED_BANANA": 36,
  "MONKEY_BONES_3183": 331,
  "CLEANING_CLOTH": 218,
  "BRONZE_HALBERD": 317,
  "IRON_HALBERD": 851,
  "STEEL_HALBERD": 10223,
  "BLACK_HALBERD": 6578,
  "MITHRIL_HALBERD": 6023,
  "ADAMANT_HALBERD": 10729,
  "RUNE_HALBERD": 38123,
  "DRAGON_HALBERD": 149589,
  "LIMESTONE": 65,
  "BARREL_3216": 83,
  "RAW_RABBIT": 218,
  "COOKED_RABBIT": 384,
  "BARK": 273,
  "VAMPYRE_DUST": 253,
  "BROKEN_BARK_SNELM": 786,
  "BLAMISH_BARK_SHELL": 197,
  "THIN_SNAIL": 624,
  "LEAN_SNAIL": 1112,
  "FAT_SNAIL": 1096,
  "THIN_SNAIL_MEAT": 346,
  "LEAN_SNAIL_MEAT": 562,
  "FAT_SNAIL_MEAT": 1015,
  "RAW_SLIMY_EEL": 310,
  "COOKED_SLIMY_EEL": 132,
  "SPLITBARK_HELM": 5825,
  "SPLITBARK_BODY": 52058,
  "SPLITBARK_LEGS": 45863,
  "SPLITBARK_GAUNTLETS": 2586,
  "SPLITBARK_BOOTS": 7806,
  "LOAR_REMAINS": 84,
  "PHRIN_REMAINS": 388,
  "RIYL_REMAINS": 406,
  "ASYN_REMAINS": 2267,
  "FIYR_REMAINS": 3834,
  "UNFINISHED_POTION": 243,
  "SERUM_207_4": 3,
  "SERUM_207_3": 2,
  "SERUM_207_2": 3,
  "SERUM_207_1": 4,
  "LIMESTONE_BRICK": 181,
  "OLIVE_OIL_4": 12,
  "OLIVE_OIL_3": 41,
  "OLIVE_OIL_2": 21,
  "OLIVE_OIL_1": 23,
  "SACRED_OIL_4": 1948,
  "SACRED_OIL_3": 1863,
  "SACRED_OIL_2": 900,
  "SACRED_OIL_1": 430,
  "PYRE_LOGS": 704,
  "OAK_PYRE_LOGS": 931,
  "WILLOW_PYRE_LOGS": 1466,
  "MAPLE_PYRE_LOGS": 1412,
  "YEW_PYRE_LOGS": 2162,
  "MAGIC_PYRE_LOGS": 3174,
  "FINE_CLOTH": 3868,
  "BLACK_PLATESKIRT_T": 2220,
  "BLACK_PLATESKIRT_G": 2949,
  "ADAMANT_PLATESKIRT_T": 3336,
  "ADAMANT_PLATESKIRT_G": 3454,
  "RUNE_PLATESKIRT_G": 39068,
  "RUNE_PLATESKIRT_T": 38835,
  "ZAMORAK_PLATESKIRT": 38695,
  "SARADOMIN_PLATESKIRT": 38418,
  "GUTHIX_PLATESKIRT": 38233,
  "GILDED_PLATEBODY": 2649742,
  "GILDED_PLATELEGS": 4237969,
  "GILDED_PLATESKIRT": 268310,
  "GILDED_FULL_HELM": 1689848,
  "GILDED_KITESHIELD": 1840851,
  "FLAMTAER_HAMMER": 6050,
  "ARCHER_HELM": 42328,
  "BERSERKER_HELM": 46754,
  "WARRIOR_HELM": 44783,
  "FARSEER_HELM": 41753,
  "FREMENNIK_CYAN_CLOAK": 867,
  "FREMENNIK_BROWN_CLOAK": 97,
  "FREMENNIK_BLUE_CLOAK": 963,
  "FREMENNIK_GREEN_CLOAK": 883,
  "FREMENNIK_BROWN_SHIRT": 151,
  "FREMENNIK_GREY_SHIRT": 784,
  "FREMENNIK_BEIGE_SHIRT": 850,
  "FREMENNIK_RED_SHIRT": 655,
  "FREMENNIK_BLUE_SHIRT": 698,
  "FREMENNIK_RED_CLOAK": 829,
  "FREMENNIK_GREY_CLOAK": 972,
  "FREMENNIK_YELLOW_CLOAK": 913,
  "FREMENNIK_TEAL_CLOAK": 733,
  "FREMENNIK_PURPLE_CLOAK": 280,
  "FREMENNIK_PINK_CLOAK": 733,
  "FREMENNIK_BLACK_CLOAK": 888,
  "FREMENNIK_BOOTS": 524,
  "FREMENNIK_ROBE": 767,
  "FREMENNIK_SKIRT": 733,
  "FREMENNIK_HAT": 1375,
  "FREMENNIK_GLOVES": 250,
  "KEG_OF_BEER_3801": 1157,
  "BEER_TANKARD": 293,
  "SARADOMIN_PAGE_1": 3533,
  "SARADOMIN_PAGE_2": 2987,
  "SARADOMIN_PAGE_3": 2530,
  "SARADOMIN_PAGE_4": 3050,
  "ZAMORAK_PAGE_1": 351157,
  "ZAMORAK_PAGE_2": 284646,
  "ZAMORAK_PAGE_3": 296902,
  "ZAMORAK_PAGE_4": 289635,
  "GUTHIX_PAGE_1": 5642,
  "GUTHIX_PAGE_2": 5673,
  "GUTHIX_PAGE_3": 5699,
  "GUTHIX_PAGE_4": 5308,
  "MONKEY_NUTS": 182,
  "MONKEY_BAR": 435,
  "BANANA_STEW": 7,
  "DRAGON_PLATELEGS": 161444,
  "MYSTIC_HAT": 11444,
  "MYSTIC_ROBE_TOP": 71496,
  "MYSTIC_ROBE_BOTTOM": 47754,
  "MYSTIC_GLOVES": 5700,
  "MYSTIC_BOOTS": 6019,
  "MYSTIC_HAT_DARK": 43723,
  "MYSTIC_ROBE_TOP_DARK": 72077,
  "MYSTIC_ROBE_BOTTOM_DARK": 47849,
  "MYSTIC_GLOVES_DARK": 7206,
  "MYSTIC_BOOTS_DARK": 88363,
  "MYSTIC_HAT_LIGHT": 9527,
  "MYSTIC_ROBE_TOP_LIGHT": 72055,
  "MYSTIC_ROBE_BOTTOM_LIGHT": 47850,
  "MYSTIC_GLOVES_LIGHT": 5750,
  "MYSTIC_BOOTS_LIGHT": 15368,
  "BRONZE_BOOTS": 737,
  "IRON_BOOTS": 5011,
  "STEEL_BOOTS": 84,
  "BLACK_BOOTS": 194,
  "MITHRIL_BOOTS": 839,
  "ADAMANT_BOOTS": 1107,
  "RUNE_BOOTS": 7252,
  "ABYSSAL_WHIP": 2679507,
  "GRANITE_MAUL": 31240,
  "MIRROR_SHIELD": 3541,
  "BAG_OF_SALT": 11,
  "ROCK_HAMMER": 547,
  "FACEMASK": 450,
  "EARMUFFS": 295,
  "NOSE_PEG": 446,
  "SLAYERS_STAFF": 21414,
  "CRYSTAL_SEED": 6120,
  "NEW_CRYSTAL_BOW": 897129,
  "NEW_CRYSTAL_SHIELD": 756548,
  "RAW_BEEF_4287": 59,
  "RAW_CHICKEN_4289": 46,
  "COOKED_CHICKEN_4291": 53,
  "COOKED_MEAT_4293": 52,
  "HAM_SHIRT": 44,
  "HAM_ROBE": 414,
  "HAM_HOOD": 221,
  "HAM_CLOAK": 939,
  "HAM_LOGO": 933,
  "HAM_GLOVES": 683,
  "HAM_BOOTS": 1529,
  "TEAM_1_CAPE": 586,
  "TEAM_2_CAPE": 498,
  "TEAM_3_CAPE": 277,
  "TEAM_4_CAPE": 466,
  "TEAM_5_CAPE": 870,
  "TEAM_6_CAPE": 49,
  "TEAM_7_CAPE": 442,
  "TEAM_8_CAPE": 396,
  "TEAM_9_CAPE": 319,
  "TEAM_10_CAPE": 189,
  "TEAM_11_CAPE": 521,
  "TEAM_12_CAPE": 444,
  "TEAM_13_CAPE": 464,
  "TEAM_14_CAPE": 660,
  "TEAM_15_CAPE": 955,
  "TEAM_16_CAPE": 64,
  "TEAM_17_CAPE": 364,
  "TEAM_18_CAPE": 433,
  "TEAM_19_CAPE": 232,
  "TEAM_20_CAPE": 142,
  "TEAM_21_CAPE": 497,
  "TEAM_22_CAPE": 383,
  "TEAM_23_CAPE": 356,
  "TEAM_24_CAPE": 548,
  "TEAM_25_CAPE": 545,
  "TEAM_26_CAPE": 75,
  "TEAM_27_CAPE": 417,
  "TEAM_28_CAPE": 366,
  "TEAM_29_CAPE": 247,
  "TEAM_30_CAPE": 180,
  "TEAM_31_CAPE": 423,
  "TEAM_32_CAPE": 370,
  "TEAM_33_CAPE": 420,
  "TEAM_34_CAPE": 528,
  "TEAM_35_CAPE": 861,
  "TEAM_36_CAPE": 80,
  "TEAM_37_CAPE": 387,
  "TEAM_38_CAPE": 441,
  "TEAM_39_CAPE": 241,
  "TEAM_40_CAPE": 194,
  "TEAM_41_CAPE": 398,
  "TEAM_42_CAPE": 287,
  "TEAM_43_CAPE": 428,
  "TEAM_44_CAPE": 589,
  "TEAM_45_CAPE": 910,
  "TEAM_46_CAPE": 33,
  "TEAM_47_CAPE": 409,
  "TEAM_48_CAPE": 449,
  "TEAM_49_CAPE": 312,
  "TEAM_50_CAPE": 203,
  "GUTHIX_REST_4": 2418,
  "GUTHIX_REST_3": 1536,
  "GUTHIX_REST_2": 916,
  "GUTHIX_REST_1": 473,
  "AIRTIGHT_POT": 921,
  "UNFIRED_POT_LID": 125,
  "POT_LID": 396,
  "BOWL_OF_HOT_WATER": 129,
  "CUP_OF_WATER": 35,
  "CUP_OF_HOT_WATER": 283,
  "ROPE_4498": 52,
  "GIANT_FROG_LEGS": 971,
  "OIL_LAMP": 890,
  "EMPTY_OIL_LAMP": 3,
  "EMPTY_CANDLE_LANTERN": 3,
  "EMPTY_OIL_LANTERN": 44,
  "OIL_LANTERN": 704,
  "OIL_LANTERN_FRAME": 57,
  "LANTERN_LENS": 7,
  "BULLSEYE_LANTERN_UNF": 177,
  "BULLSEYE_LANTERN_EMPTY": 206,
  "BULLSEYE_LANTERN": 965,
  "SPINY_HELMET": 768,
  "BLACK_SPEAR": 162,
  "BLACK_SPEAR_P": 10285,
  "DRAGON_PLATESKIRT": 161389,
  "DRAGON_SCIMITAR": 59681,
  "KHARIDIAN_HEADPIECE": 307,
  "FAKE_BEARD": 316,
  "KARIDIAN_DISGUISE": 65,
  "WILLOW_BLACKJACK": 201,
  "SUPER_KEBAB": 587,
  "BANDITS_BREW": 1441,
  "GARLIC_POWDER": 29,
  "ANCIENT_STAFF": 80631,
  "LINEN": 695,
  "BUCKET_OF_SAP": 180,
  "PILE_OF_SALT": 53,
  "STEAM_RUNE": 100,
  "MIST_RUNE": 105,
  "DUST_RUNE": 3,
  "SMOKE_RUNE": 78,
  "MUD_RUNE": 205,
  "LAVA_RUNE": 5,
  "AHRIMS_HOOD": 65169,
  "AHRIMS_STAFF": 113242,
  "AHRIMS_ROBETOP": 1986133,
  "AHRIMS_ROBESKIRT": 1845507,
  "DHAROKS_HELM": 301443,
  "DHAROKS_GREATAXE": 624330,
  "DHAROKS_PLATEBODY": 1182472,
  "DHAROKS_PLATELEGS": 1298189,
  "GUTHANS_HELM": 992216,
  "GUTHANS_WARSPEAR": 747671,
  "GUTHANS_PLATEBODY": 645288,
  "GUTHANS_CHAINSKIRT": 577657,
  "KARILS_COIF": 69856,
  "KARILS_CROSSBOW": 143962,
  "KARILS_LEATHERTOP": 1842243,
  "KARILS_LEATHERSKIRT": 172353,
  "BOLT_RACK": 81,
  "TORAGS_HELM": 130652,
  "TORAGS_HAMMERS": 95122,
  "TORAGS_PLATEBODY": 220331,
  "TORAGS_PLATELEGS": 349998,
  "VERACS_HELM": 171463,
  "VERACS_FLAIL": 151852,
  "VERACS_BRASSARD": 172102,
  "VERACS_PLATESKIRT": 768505,
  "BRONZE_BRUTAL": 92,
  "IRON_BRUTAL": 95,
  "STEEL_BRUTAL": 99,
  "BLACK_BRUTAL": 195,
  "MITHRIL_BRUTAL": 166,
  "ADAMANT_BRUTAL": 234,
  "RUNE_BRUTAL": 919,
  "ZOGRE_BONES": 557,
  "BRONZE_NAILS": 7,
  "IRON_NAILS": 16,
  "BLACK_NAILS": 632,
  "MITHRIL_NAILS": 41,
  "ADAMANTITE_NAILS": 111,
  "RUNE_NAILS": 812,
  "UNSTRUNG_COMP_BOW": 410,
  "COMP_OGRE_BOW": 1062,
  "FAYRG_BONES": 3597,
  "RAURG_BONES": 6698,
  "OURG_BONES": 23569,
  "UNFINISHED_POTION_4840": 243,
  "RELICYMS_BALM_4": 836,
  "RELICYMS_BALM_3": 422,
  "RELICYMS_BALM_2": 570,
  "RELICYMS_BALM_1": 305,
  "OGRE_COFFIN_KEY": 1420,
  "AHRIMS_HOOD_0": 26212,
  "AHRIMS_STAFF_0": 55720,
  "AHRIMS_ROBETOP_0": 1903436,
  "AHRIMS_ROBESKIRT_0": 1781127,
  "DHAROKS_HELM_0": 255815,
  "DHAROKS_GREATAXE_0": 542553,
  "DHAROKS_PLATEBODY_0": 1113338,
  "DHAROKS_PLATELEGS_0": 1223668,
  "GUTHANS_HELM_0": 953271,
  "GUTHANS_WARSPEAR_0": 715121,
  "GUTHANS_PLATEBODY_0": 460193,
  "GUTHANS_CHAINSKIRT_0": 488000,
  "KARILS_COIF_0": 31815,
  "KARILS_CROSSBOW_0": 95767,
  "KARILS_LEATHERTOP_0": 1751867,
  "KARILS_LEATHERSKIRT_0": 120469,
  "TORAGS_HELM_0": 76520,
  "TORAGS_HAMMERS_0": 95789,
  "TORAGS_PLATEBODY_0": 167161,
  "TORAGS_PLATELEGS_0": 265289,
  "VERACS_HELM_0": 130211,
  "VERACS_FLAIL_0": 95156,
  "VERACS_BRASSARD_0": 167202,
  "VERACS_PLATESKIRT_0": 671855,
  "RAW_CAVE_EEL": 566,
  "CAVE_EEL": 480,
  "MINING_HELMET_5014": 452,
  "BONE_SPEAR": 395,
  "BONE_CLUB": 243,
  "BIRD_NEST_5075": 3427,
  "MARIGOLD_SEED": 2,
  "ROSEMARY_SEED": 2,
  "NASTURTIUM_SEED": 1,
  "WOAD_SEED": 2,
  "LIMPWURT_SEED": 131,
  "REDBERRY_SEED": 2,
  "CADAVABERRY_SEED": 2,
  "DWELLBERRY_SEED": 2,
  "JANGERBERRY_SEED": 5,
  "WHITEBERRY_SEED": 8,
  "POISON_IVY_SEED": 13,
  "CACTUS_SEED": 28,
  "BELLADONNA_SEED": 29,
  "MUSHROOM_SPORE": 20,
  "APPLE_TREE_SEED": 6,
  "BANANA_TREE_SEED": 5,
  "ORANGE_TREE_SEED": 15,
  "CURRY_TREE_SEED": 36,
  "PINEAPPLE_SEED": 320,
  "PAPAYA_TREE_SEED": 3289,
  "PALM_TREE_SEED": 36648,
  "CALQUAT_TREE_SEED": 79,
  "GUAM_SEED": 15,
  "MARRENTILL_SEED": 5,
  "TARROMIN_SEED": 10,
  "HARRALANDER_SEED": 17,
  "RANARR_SEED": 36111,
  "TOADFLAX_SEED": 360,
  "IRIT_SEED": 27,
  "AVANTOE_SEED": 945,
  "KWUARM_SEED": 361,
  "SNAPDRAGON_SEED": 46318,
  "CADANTINE_SEED": 911,
  "LANTADYME_SEED": 1807,
  "DWARF_WEED_SEED": 673,
  "TORSTOL_SEED": 40964,
  "BARLEY_SEED": 2,
  "JUTE_SEED": 2,
  "HAMMERSTONE_SEED": 1,
  "ASGARNIAN_SEED": 1,
  "YANILLIAN_SEED": 3,
  "KRANDORIAN_SEED": 2,
  "WILDBLOOD_SEED": 130,
  "ACORN": 26,
  "WILLOW_SEED": 4369,
  "MAPLE_SEED": 36467,
  "YEW_SEED": 79726,
  "MAGIC_SEED": 129331,
  "POTATO_SEED": 1,
  "ONION_SEED": 1,
  "SWEETCORN_SEED": 2,
  "WATERMELON_SEED": 72,
  "TOMATO_SEED": 2,
  "STRAWBERRY_SEED": 18,
  "CABBAGE_SEED": 1,
  "GARDENING_TROWEL": 208,
  "SECATEURS": 126,
  "WATERING_CAN": 224,
  "RAKE": 190,
  "SEED_DIBBER": 166,
  "GARDENING_BOOTS": 4991,
  "EMPTY_PLANT_POT": 8,
  "UNFIRED_PLANT_POT": 263,
  "FILLED_PLANT_POT": 2,
  "OAK_SAPLING": 191,
  "WILLOW_SAPLING": 4839,
  "MAPLE_SAPLING": 37319,
  "YEW_SAPLING": 81663,
  "MAGIC_SAPLING": 131086,
  "BASKET": 3,
  "APPLES_5": 804,
  "ORANGES_5": 436,
  "STRAWBERRIES_5": 885,
  "BANANAS_5": 448,
  "EMPTY_SACK": 2,
  "POTATOES_10": 587,
  "ONIONS_10": 594,
  "CABBAGES_10": 627,
  "APPLE_SAPLING": 102,
  "BANANA_SAPLING": 101,
  "ORANGE_SAPLING": 82,
  "CURRY_SAPLING": 158,
  "PINEAPPLE_SAPLING": 633,
  "PAPAYA_SAPLING": 3833,
  "PALM_SAPLING": 37598,
  "CALQUAT_SAPLING": 483,
  "STRAWBERRY": 176,
  "ELEMENTAL_TALISMAN": 5565,
  "BINDING_NECKLACE": 1011,
  "TIARA_MOULD": 133,
  "TIARA": 76,
  "AIR_TIARA": 8,
  "MIND_TIARA": 3,
  "WATER_TIARA": 5,
  "BODY_TIARA": 3,
  "EARTH_TIARA": 1,
  "FIRE_TIARA": 146,
  "COSMIC_TIARA": 4,
  "NATURE_TIARA": 8,
  "CHAOS_TIARA": 5,
  "DEATH_TIARA": 8191,
  "INITIATE_SALLET": 3323,
  "INITIATE_HAUBERK": 5854,
  "INITIATE_CUISSE": 4473,
  "BRONZE_ARROW_P_PLUS": 11,
  "IRON_ARROW_P_PLUS": 18,
  "STEEL_ARROW_P_PLUS": 219,
  "MITHRIL_ARROW_P_PLUS": 98,
  "ADAMANT_ARROW_P_PLUS": 513,
  "RUNE_ARROW_P_PLUS": 526,
  "BRONZE_ARROW_P_PLUS_PLUS": 20,
  "IRON_ARROW_P_PLUS_PLUS": 57,
  "STEEL_ARROW_P_PLUS_PLUS": 1118,
  "MITHRIL_ARROW_P_PLUS_PLUS": 122,
  "ADAMANT_ARROW_P_PLUS_PLUS": 57,
  "RUNE_ARROW_P_PLUS_PLUS": 1602,
  "BRONZE_DART_P_PLUS": 28,
  "IRON_DART_P_PLUS": 21,
  "STEEL_DART_P_PLUS": 55,
  "BLACK_DART_P_PLUS": 16,
  "MITHRIL_DART_P_PLUS": 77,
  "ADAMANT_DART_P_PLUS": 621,
  "RUNE_DART_P_PLUS": 1596,
  "BRONZE_DART_P_PLUS_PLUS": 19,
  "IRON_DART_P_PLUS_PLUS": 42,
  "STEEL_DART_P_PLUS_PLUS": 47,
  "BLACK_DART_P_PLUS_PLUS": 25,
  "MITHRIL_DART_P_PLUS_PLUS": 213,
  "ADAMANT_DART_P_PLUS_PLUS": 1499,
  "RUNE_DART_P_PLUS_PLUS": 2504,
  "BRONZE_JAVELIN_P_PLUS": 6,
  "IRON_JAVELIN_P_PLUS": 6,
  "STEEL_JAVELIN_P_PLUS": 9,
  "MITHRIL_JAVELIN_P_PLUS": 17,
  "ADAMANT_JAVELIN_P_PLUS": 118,
  "RUNE_JAVELIN_P_PLUS": 385,
  "BRONZE_JAVELIN_P_PLUS_PLUS": 8,
  "IRON_JAVELIN_P_PLUS_PLUS": 8,
  "STEEL_JAVELIN_P_PLUS_PLUS": 22,
  "MITHRIL_JAVELIN_P_PLUS_PLUS": 15,
  "ADAMANT_JAVELIN_P_PLUS_PLUS": 154,
  "RUNE_JAVELIN_P_PLUS_PLUS": 818,
  "BRONZE_KNIFE_P_PLUS": 33,
  "IRON_KNIFE_P_PLUS": 123,
  "STEEL_KNIFE_P_PLUS": 66,
  "MITHRIL_KNIFE_P_PLUS": 171,
  "BLACK_KNIFE_P_PLUS": 94,
  "ADAMANT_KNIFE_P_PLUS": 330,
  "RUNE_KNIFE_P_PLUS": 680,
  "BRONZE_KNIFE_P_PLUS_PLUS": 74,
  "IRON_KNIFE_P_PLUS_PLUS": 624,
  "STEEL_KNIFE_P_PLUS_PLUS": 192,
  "MITHRIL_KNIFE_P_PLUS_PLUS": 1028,
  "BLACK_KNIFE_P_PLUS_PLUS": 363,
  "ADAMANT_KNIFE_P_PLUS_PLUS": 2186,
  "RUNE_KNIFE_P_PLUS_PLUS": 461,
  "IRON_DAGGER_P_PLUS": 2436,
  "BRONZE_DAGGER_P_PLUS": 6298,
  "STEEL_DAGGER_P_PLUS": 2648,
  "MITHRIL_DAGGER_P_PLUS": 5942,
  "ADAMANT_DAGGER_P_PLUS": 3144,
  "RUNE_DAGGER_P_PLUS": 4427,
  "DRAGON_DAGGER_P_PLUS": 16960,
  "BLACK_DAGGER_P_PLUS": 5200,
  "IRON_DAGGER_P_PLUS_PLUS": 5776,
  "BRONZE_DAGGER_P_PLUS_PLUS": 7631,
  "STEEL_DAGGER_P_PLUS_PLUS": 6379,
  "MITHRIL_DAGGER_P_PLUS_PLUS": 5548,
  "ADAMANT_DAGGER_P_PLUS_PLUS": 8004,
  "RUNE_DAGGER_P_PLUS_PLUS": 10125,
  "DRAGON_DAGGER_P_PLUS_PLUS": 23400,
  "BLACK_DAGGER_P_PLUS_PLUS": 5206,
  "BRONZE_SPEAR_P_PLUS": 728,
  "IRON_SPEAR_P_PLUS": 56,
  "STEEL_SPEAR_P_PLUS": 188,
  "MITHRIL_SPEAR_P_PLUS": 6289,
  "ADAMANT_SPEAR_P_PLUS": 1520,
  "RUNE_SPEAR_P_PLUS": 28223,
  "DRAGON_SPEAR_P_PLUS": 44608,
  "BRONZE_SPEAR_P_PLUS_PLUS": 32,
  "IRON_SPEAR_P_PLUS_PLUS": 11807,
  "MITHRIL_SPEAR_P_PLUS_PLUS": 10780,
  "ADAMANT_SPEAR_P_PLUS_PLUS": 3436,
  "RUNE_SPEAR_P_PLUS_PLUS": 21093,
  "DRAGON_SPEAR_P_PLUS_PLUS": 44830,
  "BLACK_SPEAR_P_PLUS": 18778,
  "BLACK_SPEAR_P_PLUS_PLUS": 11748,
  "ASGARNIAN_ALE_M": 1256,
  "MATURE_WMB": 5966,
  "GREENMANS_ALE_M": 23565,
  "DRAGON_BITTER_M": 268,
  "DWARVEN_STOUT_M": 20458,
  "MOONLIGHT_MEAD_M": 3952,
  "AXEMANS_FOLLY": 1269,
  "AXEMANS_FOLLY_M": 43951,
  "CHEFS_DELIGHT": 1254,
  "CHEFS_DELIGHT_M": 48653,
  "SLAYERS_RESPITE": 94,
  "SLAYERS_RESPITE_M": 33125,
  "CIDER": 686,
  "MATURE_CIDER": 34097,
  "ALE_YEAST": 570,
  "CALQUAT_KEG": 136,
  "DWARVEN_STOUT_4": 13169,
  "ASGARNIAN_ALE_4": 4746,
  "MIND_BOMB_4": 16820,
  "DRAGON_BITTER_4": 4559,
  "MOONLIGHT_MEAD_4": 150000,
  "AXEMANS_FOLLY_4": 25875,
  "CHEFS_DELIGHT_4": 11123,
  "SLAYERS_RESPITE_4": 40614,
  "CIDER_4": 5043,
  "DWARVEN_STOUT_M4": 346424,
  "ASGARNIAN_ALE_M4": 2260,
  "MIND_BOMB_M4": 17651,
  "DRAGON_BITTER_M4": 12537,
  "MOONLIGHT_MEAD_M4": 200000,
  "AXEMANS_FOLLY_M4": 256496,
  "CHEFS_DELIGHT_M4": 185962,
  "SLAYERS_RESPITE_M4": 412673,
  "CIDER_M4": 64800,
  "JUTE_FIBRE": 1077,
  "WILLOW_BRANCH": 813,
  "COCONUT_MILK": 1504,
  "WEAPON_POISON_PLUS": 1024,
  "WEAPON_POISON_PLUS_PLUS": 5120,
  "ANTIDOTE_PLUS_4": 1705,
  "ANTIDOTE_PLUS_3": 2269,
  "ANTIDOTE_PLUS_2": 1722,
  "ANTIDOTE_PLUS_1": 957,
  "ANTIDOTE_PLUS_PLUS_4": 410,
  "ANTIDOTE_PLUS_PLUS_3": 388,
  "ANTIDOTE_PLUS_PLUS_2": 199,
  "ANTIDOTE_PLUS_PLUS_1": 110,
  "TOMATOES_5": 424,
  "CURRY_LEAF": 68,
  "PAPAYA_FRUIT": 685,
  "COCONUT": 1235,
  "CALQUAT_FRUIT": 53,
  "WATERMELON": 17,
  "WATERMELON_SLICE": 29,
  "SWEETCORN": 217,
  "COOKED_SWEETCORN": 225,
  "APPLE_MUSH": 25,
  "HAMMERSTONE_HOPS": 134,
  "ASGARNIAN_HOPS": 230,
  "YANILLIAN_HOPS": 963,
  "KRANDORIAN_HOPS": 196,
  "WILDBLOOD_HOPS": 98,
  "MUSHROOM": 311,
  "BARLEY": 592,
  "BARLEY_MALT": 945,
  "MARIGOLDS": 135,
  "NASTURTIUMS": 212,
  "ROSEMARY": 29,
  "CACTUS_SPINE": 1225,
  "POISON_IVY_BERRIES": 97,
  "COMPOST": 24,
  "SUPERCOMPOST": 373,
  "PLANT_CURE": 195,
  "MAGIC_STRING": 270,
  "OAK_ROOTS": 47,
  "WILLOW_ROOTS": 31,
  "MAPLE_ROOTS": 23,
  "YEW_ROOTS": 120,
  "MAGIC_ROOTS": 1236,
  "WEEDS": 50,
  "BRONZE_BOLTS_P_PLUS": 116,
  "BRONZE_BOLTS_P_PLUS_PLUS": 218,
  "ROCK_SHELL_HELM": 26060,
  "ROCK_SHELL_PLATE": 38655,
  "ROCK_SHELL_LEGS": 38150,
  "SPINED_HELM": 44703,
  "SPINED_BODY": 4328,
  "SPINED_CHAPS": 3731,
  "SKELETAL_HELM": 44984,
  "SKELETAL_TOP": 26687,
  "SKELETAL_BOTTOMS": 26302,
  "SPINED_BOOTS": 5649,
  "ROCK_SHELL_BOOTS": 947,
  "SKELETAL_BOOTS": 33337,
  "SPINED_GLOVES": 3039,
  "ROCK_SHELL_GLOVES": 384,
  "SKELETAL_GLOVES": 80174,
  "DAGANNOTH_HIDE": 528,
  "ROCK_SHELL_CHUNK": 11796,
  "ROCK_SHELL_SHARD": 18470,
  "ROCK_SHELL_SPLINTER": 22254,
  "SKULL_PIECE": 39814,
  "RIBCAGE_PIECE": 45888,
  "FIBULA_PIECE": 18647,
  "CIRCULAR_HIDE": 28835,
  "FLATTENED_HIDE": 5573,
  "STRETCHED_HIDE": 9884,
  "TEAK_PYRE_LOGS": 1632,
  "MAHOGANY_PYRE_LOG": 1943,
  "BROODOO_SHIELD_10": 3395,
  "BROODOO_SHIELD": 3395,
  "BROODOO_SHIELD_10_6237": 3395,
  "BROODOO_SHIELD_6257": 3395,
  "BROODOO_SHIELD_10_6259": 3395,
  "BROODOO_SHIELD_6279": 3395,
  "THATCH_SPAR_LIGHT": 2,
  "THATCH_SPAR_MED": 6,
  "THATCH_SPAR_DENSE": 56,
  "SNAKE_HIDE": 242,
  "SNAKESKIN": 20,
  "SPIDER_CARCASS": 147,
  "SKEWER_STICK": 30,
  "TRADING_STICKS": 9,
  "GOUT_TUBER": 875373,
  "OPAL_MACHETE": 534,
  "JADE_MACHETE": 11473,
  "RED_TOPAZ_MACHETE": 22384,
  "PROBOSCIS": 173,
  "SNAKESKIN_BODY": 523,
  "SNAKESKIN_CHAPS": 440,
  "SNAKESKIN_BANDANA": 122,
  "SNAKESKIN_BOOTS": 225,
  "SNAKESKIN_VAMBRACES": 205,
  "MAHOGANY_LOGS": 326,
  "TEAK_LOGS": 204,
  "TRIBAL_MASK": 1346,
  "TRIBAL_MASK_6337": 1346,
  "TRIBAL_MASK_6339": 1346,
  "TRIBAL_TOP": 1346,
  "VILLAGER_ROBE": 1346,
  "VILLAGER_HAT": 1346,
  "VILLAGER_ARMBAND": 1346,
  "VILLAGER_SANDALS": 1346,
  "TRIBAL_TOP_6351": 1346,
  "VILLAGER_ROBE_6353": 1346,
  "VILLAGER_HAT_6355": 1346,
  "VILLAGER_SANDALS_6357": 1346,
  "VILLAGER_ARMBAND_6359": 1346,
  "TRIBAL_TOP_6361": 1346,
  "VILLAGER_ROBE_6363": 1346,
  "VILLAGER_HAT_6365": 1346,
  "VILLAGER_SANDALS_6367": 1346,
  "VILLAGER_ARMBAND_6369": 1346,
  "TRIBAL_TOP_6371": 1346,
  "VILLAGER_ROBE_6373": 1346,
  "VILLAGER_HAT_6375": 1346,
  "VILLAGER_SANDALS_6377": 1346,
  "VILLAGER_ARMBAND_6379": 1346,
  "FEZ": 766,
  "DESERT_TOP": 1199,
  "DESERT_ROBES": 1035,
  "DESERT_TOP_6388": 1199,
  "DESERT_LEGS": 935,
  "MENAPHITE_PURPLE_HAT": 876,
  "MENAPHITE_PURPLE_TOP": 493,
  "MENAPHITE_PURPLE_ROBE": 615,
  "MENAPHITE_PURPLE_KILT": 507,
  "MENAPHITE_RED_HAT": 965,
  "MENAPHITE_RED_TOP": 702,
  "MENAPHITE_RED_ROBE": 694,
  "MENAPHITE_RED_KILT": 846,
  "OAK_BLACKJACK_O": 621,
  "OAK_BLACKJACK_D": 365,
  "WILLOW_BLACKJACK_O": 2023,
  "WILLOW_BLACKJACK_D": 827,
  "MAPLE_BLACKJACK": 2058,
  "MAPLE_BLACKJACK_O": 3533,
  "MAPLE_BLACKJACK_D": 3864,
  "AIR_RUNE_6422": 5,
  "WATER_RUNE_6424": 5,
  "EARTH_RUNE_6426": 5,
  "FIRE_RUNE_6428": 5,
  "CHAOS_RUNE_6430": 96,
  "DEATH_RUNE_6432": 224,
  "LAW_RUNE_6434": 211,
  "MIND_RUNE_6436": 4,
  "BODY_RUNE_6438": 4,
  "COMPOST_POTION_4": 495,
  "COMPOST_POTION_3": 332,
  "COMPOST_POTION_2": 425,
  "COMPOST_POTION_1": 189,
  "TOKTZ_XIL_UL": 808,
  "TOKTZ_XIL_AK": 576869,
  "TOKTZ_KET_XIL": 171103,
  "TOKTZ_XIL_EK": 90482,
  "TOKTZ_MEJ_TAL": 516573,
  "TZHAAR_KET_EM": 249335,
  "TZHAAR_KET_OM": 193110,
  "MUD_BATTLESTAFF": 105565,
  "MYSTIC_MUD_STAFF": 133880,
  "OBSIDIAN_CAPE": 769544,
  "UNCUT_ONYX": 2897862,
  "ONYX": 2891355,
  "ONYX_RING": 2756957,
  "ONYX_NECKLACE": 2912845,
  "ONYX_AMULET_U": 2966707,
  "ONYX_AMULET": 2989450,
  "RING_OF_STONE": 2189625,
  "AMULET_OF_FURY": 2918735,
  "WHITE_CLAWS": 1983,
  "WHITE_BATTLEAXE": 4861,
  "WHITE_DAGGER": 137,
  "WHITE_DAGGER_P": 129,
  "WHITE_DAGGER_P_PLUS": 149,
  "WHITE_DAGGER_P_PLUS_PLUS": 238,
  "WHITE_HALBERD": 5935,
  "WHITE_MACE": 622,
  "WHITE_MAGIC_STAFF": 1297,
  "WHITE_SWORD": 5455,
  "WHITE_LONGSWORD": 6057,
  "WHITE_2H_SWORD": 1645,
  "WHITE_SCIMITAR": 1837,
  "WHITE_WARHAMMER": 1719,
  "WHITE_CHAINBODY": 2122,
  "WHITE_PLATEBODY": 6512,
  "WHITE_BOOTS": 1296,
  "WHITE_MED_HELM": 5920,
  "WHITE_FULL_HELM": 1619,
  "WHITE_PLATELEGS": 2193,
  "WHITE_PLATESKIRT": 6872,
  "WHITE_GLOVES": 1016,
  "WHITE_SQ_SHIELD": 7633,
  "WHITE_KITESHIELD": 2793,
  "GROUND_GUAM": 3,
  "SARADOMIN_BREW_4": 3297,
  "SARADOMIN_BREW_3": 2386,
  "SARADOMIN_BREW_2": 1625,
  "SARADOMIN_BREW_1": 813,
  "CRUSHED_NEST": 3511,
  "PAT_OF_BUTTER": 99,
  "BAKED_POTATO": 93,
  "POTATO_WITH_BUTTER": 318,
  "POTATO_WITH_CHEESE": 279,
  "SEERCULL": 21390,
  "DAGANNOTH_BONES": 8141,
  "SEERS_RING": 523231,
  "ARCHERS_RING": 5626353,
  "WARRIOR_RING": 67639,
  "BERSERKER_RING": 3430462,
  "DRAGON_AXE": 61018,
  "BLACK_DESERT_SHIRT": 1421,
  "BLACK_DESERT_ROBE": 1389,
  "GUTHIX_MJOLNIR": 2243,
  "SARADOMIN_MJOLNIR": 2712,
  "ZAMORAK_MJOLNIR": 3655,
  "CHOC_ICE": 145,
  "GRANITE_LEGS": 39434,
  "WYVERN_BONES": 2118,
  "FUR": 90,
  "MAGES_BOOK": 5842095,
  "BEGINNER_WAND": 183753,
  "APPRENTICE_WAND": 722621,
  "TEACHER_WAND": 2651591,
  "MASTER_WAND": 5931133,
  "INFINITY_TOP": 4383364,
  "INFINITY_HAT": 3679137,
  "INFINITY_BOOTS": 1250345,
  "INFINITY_GLOVES": 1637632,
  "INFINITY_BOTTOMS": 5172786,
  "PINK_CAPE": 1788,
  "TRIANGLE_SANDWICH": 456,
  "SANDSTONE_1KG": 68,
  "SANDSTONE_2KG": 38,
  "SANDSTONE_5KG": 41,
  "SANDSTONE_10KG": 1645,
  "GRANITE_500G": 52,
  "GRANITE_2KG": 36,
  "GRANITE_5KG": 997,
  "UNLIT_BUG_LANTERN": 274,
  "CHILLI_POTATO": 261,
  "EGG_POTATO": 590,
  "MUSHROOM_POTATO": 756,
  "TUNA_POTATO": 1094,
  "CHILLI_CON_CARNE": 20,
  "EGG_AND_TOMATO": 94,
  "MUSHROOM_ONION": 160,
  "TUNA_AND_CORN": 693,
  "MINCED_MEAT": 254,
  "SPICY_SAUCE": 297,
  "CHOPPED_GARLIC": 326,
  "UNCOOKED_EGG": 6,
  "SCRAMBLED_EGG": 9,
  "SLICED_MUSHROOMS": 80,
  "FRIED_MUSHROOMS": 102,
  "FRIED_ONIONS": 17,
  "CHOPPED_TUNA": 196,
  "SWEETCORN_7088": 217,
  "PIRATE_BOOTS": 405,
  "DRAGON_2H_SWORD": 133105,
  "INSULATED_BOOTS": 395,
  "PIE_RECIPE_BOOK": 82,
  "RAW_MUD_PIE": 929,
  "MUD_PIE": 625,
  "RAW_GARDEN_PIE": 823,
  "GARDEN_PIE": 80,
  "RAW_FISH_PIE": 1354,
  "FISH_PIE": 67,
  "RAW_ADMIRAL_PIE": 1077,
  "ADMIRAL_PIE": 149,
  "RAW_WILD_PIE": 3381,
  "WILD_PIE": 565,
  "RAW_SUMMER_PIE": 1209,
  "SUMMER_PIE": 874,
  "ROAST_RABBIT": 171,
  "IRON_SPIT": 82,
  "COOKED_CHOMPY_7228": 35,
  "RED_BOATER": 1830,
  "ORANGE_BOATER": 1008,
  "GREEN_BOATER": 1732,
  "BLUE_BOATER": 2106,
  "BLACK_BOATER": 2268,
  "RED_FIRELIGHTER": 34,
  "GREEN_FIRELIGHTER": 42,
  "BLUE_FIRELIGHTER": 55,
  "BLACK_SHIELD_H1": 2127,
  "ADAMANT_SHIELD_H1": 3245,
  "RUNE_SHIELD_H1": 66885,
  "BLACK_SHIELD_H2": 5343,
  "ADAMANT_SHIELD_H2": 3105,
  "RUNE_SHIELD_H2": 38847,
  "BLACK_SHIELD_H3": 1338,
  "ADAMANT_SHIELD_H3": 2987,
  "RUNE_SHIELD_H3": 33303,
  "BLACK_SHIELD_H4": 2049,
  "ADAMANT_SHIELD_H4": 3252,
  "RUNE_SHIELD_H4": 33672,
  "BLACK_SHIELD_H5": 1856,
  "ADAMANT_SHIELD_H5": 3109,
  "RUNE_SHIELD_H5": 34436,
  "STUDDED_BODY_G": 22479,
  "STUDDED_BODY_T": 7929,
  "STUDDED_CHAPS_G": 31772,
  "STUDDED_CHAPS_T": 7253,
  "GREEN_DHIDE_BODY_G": 4941,
  "GREEN_DHIDE_BODY_T": 4473,
  "BLUE_DHIDE_BODY_G": 5456,
  "BLUE_DHIDE_BODY_T": 5257,
  "GREEN_DHIDE_CHAPS_G": 64543,
  "GREEN_DHIDE_CHAPS_T": 5859,
  "BLUE_DHIDE_CHAPS_G": 5231,
  "BLUE_DHIDE_CHAPS_T": 2461,
  "BLUE_SKIRT_G": 52027,
  "BLUE_SKIRT_T": 19935,
  "BLUE_WIZARD_ROBE_G": 182400,
  "BLUE_WIZARD_ROBE_T": 34397,
  "BLUE_WIZARD_HAT_G": 146686,
  "BLUE_WIZARD_HAT_T": 71535,
  "ENCHANTED_ROBE": 56018,
  "ENCHANTED_TOP": 80914,
  "ENCHANTED_HAT": 10279,
  "MOLE_CLAW": 5627,
  "MOLE_SKIN": 5053,
  "WOODEN_SPOON": 53,
  "EGG_WHISK": 49,
  "SPORK": 285,
  "SPATULA": 1646,
  "FRYING_PAN": 1491,
  "SKEWER": 2772,
  "ROLLING_PIN": 18947,
  "KITCHEN_KNIFE": 7247,
  "MEAT_TENDERISER": 33242,
  "CLEAVER": 20475,
  "CORNFLOUR_7466": 313,
  "POT_OF_CORNFLOUR": 1530,
  "COOKED_CRAB_MEAT": 205,
  "POTATO_SEED_7548": 1,
  "ONION_SEED_7550": 1,
  "MITHRIL_ARROW_7552": 32,
  "FIRE_RUNE_7554": 5,
  "WATER_RUNE_7556": 5,
  "AIR_RUNE_7558": 5,
  "CHAOS_RUNE_7560": 96,
  "TOMATO_SEED_7562": 2,
  "RAW_JUBBLY": 592,
  "COOKED_JUBBLY": 1616,
  "SILVER_DUST": 162,
  "GUTHIX_BALANCE_4": 234,
  "GUTHIX_BALANCE_3": 150,
  "GUTHIX_BALANCE_2": 421,
  "GUTHIX_BALANCE_1": 260,
  "GADDERHAMMER": 1520,
  "EMPTY_CUP_7728": 10,
  "BEER_7740": 71,
  "BEER_GLASS_7742": 29,
  "ASGARNIAN_ALE_7744": 84,
  "GREENMANS_ALE_7746": 432,
  "DRAGON_BITTER_7748": 312,
  "MOONLIGHT_MEAD_7750": 130,
  "CIDER_7752": 686,
  "CHEFS_DELIGHT_7754": 1254,
  "TOY_SOLDIER": 1923,
  "TOY_SOLDIER_WOUND": 3676,
  "TOY_DOLL": 2422,
  "TOY_DOLL_WOUND": 3710,
  "TOY_MOUSE": 1215,
  "TOY_MOUSE_WOUND": 1832,
  "TOY_CAT": 6289,
  "SNAKE_HIDE_7801": 242,
  "BOTTLE_OF_WINE": 266,
  "PURE_ESSENCE": 2,
  "TORTOISE_SHELL": 1037,
  "RAW_MONKFISH": 292,
  "MONKFISH": 340,
  "VARROCK_TELEPORT": 490,
  "LUMBRIDGE_TELEPORT": 476,
  "FALADOR_TELEPORT": 498,
  "CAMELOT_TELEPORT": 298,
  "ARDOUGNE_TELEPORT": 568,
  "WATCHTOWER_TELEPORT": 610,
  "TELEPORT_TO_HOUSE": 492,
  "BONES_TO_BANANAS": 612,
  "BONES_TO_PEACHES_8015": 771,
  "ENCHANT_SAPPHIRE_OR_OPAL": 209,
  "ENCHANT_EMERALD_OR_JADE": 319,
  "ENCHANT_RUBY_OR_TOPAZ": 559,
  "ENCHANT_DIAMOND": 437,
  "ENCHANT_DRAGONSTONE": 366,
  "ENCHANT_ONYX": 693,
  "BAGGED_DEAD_TREE": 1485,
  "BAGGED_NICE_TREE": 3193,
  "BAGGED_OAK_TREE": 6667,
  "BAGGED_WILLOW_TREE": 12050,
  "BAGGED_MAPLE_TREE": 16669,
  "BAGGED_YEW_TREE": 22095,
  "BAGGED_MAGIC_TREE": 53027,
  "BAGGED_PLANT_1": 1667,
  "BAGGED_PLANT_2": 6253,
  "BAGGED_PLANT_3": 12014,
  "BAGGED_FLOWER": 5648,
  "BAGGED_DAFFODILS": 11514,
  "BAGGED_BLUEBELLS": 17379,
  "BAGGED_SUNFLOWER": 5943,
  "BAGGED_MARIGOLDS": 11331,
  "BAGGED_ROSES": 16576,
  "ASGARNIAN_ALE_8520": 84,
  "GREENMANS_ALE_8522": 432,
  "DRAGON_BITTER_8524": 312,
  "CHEFS_DELIGHT_8526": 1254,
  "FOUR_POSTER_BED": 7053,
  "OAK_PLANK": 393,
  "TEAK_PLANK": 833,
  "MAHOGANY_PLANK": 1980,
  "GOLD_LEAF_8784": 133340,
  "MARBLE_BLOCK": 328886,
  "MAGIC_STONE_8788": 993021,
  "BOLT_OF_CLOTH": 950,
  "CLOCKWORK": 816,
  "SAW": 206,
  "TIMBER_BEAM": 32,
  "BONE_DAGGER": 3093,
  "BONE_DAGGER_P": 6728,
  "BONE_DAGGER_P_PLUS": 6386,
  "BONE_DAGGER_P_PLUS_PLUS": 9508,
  "DORGESHUUN_CROSSBOW": 2823,
  "BONE_BOLTS": 6,
  "BLACK_MASK_10": 887628,
  "BLACK_MASK": 900851,
  "HAT_EYEPATCH": 19779,
  "BLUE_FLOWERS_8936": 21,
  "RED_FLOWERS_8938": 16,
  "SECURITY_BOOK": 32,
  "STRONGHOLD_NOTES": 28,
  "IVORY_COMB": 125,
  "GOLDEN_SCARAB": 986,
  "STONE_SCARAB": 170,
  "POTTERY_SCARAB": 75,
  "GOLDEN_STATUETTE": 1265,
  "POTTERY_STATUETTE": 94,
  "STONE_STATUETTE": 195,
  "GOLD_SEAL": 757,
  "STONE_SEAL": 149,
  "PHARAOHS_SCEPTRE_3": 5816113,
  "PHARAOHS_SCEPTRE": 5785268,
  "LOCUST_MEAT": 11,
  "ASTRAL_RUNE": 171,
  "IRON_BOLTS": 24,
  "STEEL_BOLTS": 35,
  "MITHRIL_BOLTS": 64,
  "ADAMANT_BOLTS": 201,
  "RUNITE_BOLTS": 320,
  "SILVER_BOLTS": 5,
  "BRONZE_CROSSBOW": 274,
  "IRON_CROSSBOW": 21,
  "STEEL_CROSSBOW": 162,
  "MITH_CROSSBOW": 430,
  "ADAMANT_CROSSBOW": 1442,
  "RUNE_CROSSBOW": 10049,
  "JADE_BOLT_TIPS": 4,
  "TOPAZ_BOLT_TIPS": 281,
  "SAPPHIRE_BOLT_TIPS": 38,
  "EMERALD_BOLT_TIPS": 58,
  "RUBY_BOLT_TIPS": 90,
  "DIAMOND_BOLT_TIPS": 179,
  "DRAGONSTONE_BOLT_TIPS": 256,
  "ONYX_BOLT_TIPS": 8356,
  "OPAL_BOLTS_E": 6,
  "PEARL_BOLTS_E": 9,
  "TOPAZ_BOLTS_E": 15,
  "SAPPHIRE_BOLTS_E": 52,
  "EMERALD_BOLTS_E": 135,
  "RUBY_BOLTS_E": 205,
  "DIAMOND_BOLTS_E": 305,
  "DRAGONSTONE_BOLTS_E": 430,
  "ONYX_BOLTS_E": 8699,
  "IRON_BOLTS_P": 143,
  "STEEL_BOLTS_P": 152,
  "MITHRIL_BOLTS_P": 145,
  "ADAMANT_BOLTS_P": 330,
  "RUNITE_BOLTS_P": 454,
  "SILVER_BOLTS_P": 34,
  "IRON_BOLTS_P_PLUS": 108,
  "STEEL_BOLTS_P_PLUS": 128,
  "MITHRIL_BOLTS_P_PLUS": 606,
  "ADAMANT_BOLTS_P_PLUS": 614,
  "RUNITE_BOLTS_P_PLUS": 783,
  "SILVER_BOLTS_P_PLUS": 72,
  "IRON_BOLTS_P_PLUS_PLUS": 329,
  "STEEL_BOLTS_P_PLUS_PLUS": 395,
  "MITHRIL_BOLTS_P_PLUS_PLUS": 1843,
  "ADAMANT_BOLTS_P_PLUS_PLUS": 1998,
  "RUNITE_BOLTS_P_PLUS_PLUS": 1746,
  "SILVER_BOLTS_P_PLUS_PLUS": 87,
  "TOPAZ_BOLTS": 358,
  "SAPPHIRE_BOLTS": 111,
  "EMERALD_BOLTS": 135,
  "RUBY_BOLTS": 307,
  "DIAMOND_BOLTS": 378,
  "DRAGONSTONE_BOLTS": 591,
  "ONYX_BOLTS": 8762,
  "BRONZE_BOLTS_UNF": 11,
  "IRON_BOLTS_UNF": 20,
  "STEEL_BOLTS_UNF": 34,
  "MITHRIL_BOLTS_UNF": 67,
  "ADAMANT_BOLTS_UNF": 215,
  "RUNITE_BOLTS_UNF": 362,
  "SILVER_BOLTS_UNF": 7,
  "MITH_GRAPPLE_TIP": 567,
  "MITH_GRAPPLE": 1016,
  "MITH_GRAPPLE_9419": 1016,
  "BRONZE_LIMBS": 51,
  "IRON_LIMBS": 82,
  "STEEL_LIMBS": 208,
  "MITHRIL_LIMBS": 605,
  "ADAMANTITE_LIMBS": 2121,
  "RUNITE_LIMBS": 9311,
  "BOLT_MOULD": 14,
  "SINEW": 122,
  "CROSSBOW_STRING": 162,
  "WOODEN_STOCK": 2,
  "OAK_STOCK": 2,
  "WILLOW_STOCK": 3,
  "TEAK_STOCK": 53,
  "MAPLE_STOCK": 5,
  "MAHOGANY_STOCK": 291,
  "YEW_STOCK": 191,
  "BRONZE_CROSSBOW_U": 16,
  "IRON_CROSSBOW_U": 42,
  "STEEL_CROSSBOW_U": 93,
  "MITHRIL_CROSSBOW_U": 491,
  "ADAMANT_CROSSBOW_U": 1181,
  "RUNITE_CROSSBOW_U": 9517,
  "GRAND_SEED_POD": 138014,
  "GNOME_SCARF": 515086,
  "GNOME_GOGGLES": 11652,
  "MINT_CAKE": 1895,
  "WIZARD_BLIZZARD_9487": 29,
  "WIZARD_BLIZZARD_9489": 29,
  "WIZARD_BLIZZARD_9508": 29,
  "SHORT_GREEN_GUY_9510": 27,
  "PINEAPPLE_PUNCH_9512": 29,
  "FRUIT_BLAST_9514": 1755,
  "DRUNK_DRAGON_9516": 26,
  "CHOC_SATURDAY_9518": 24,
  "BLURBERRY_SPECIAL_9520": 3353,
  "BATTA_TIN_9522": 5,
  "BATTA_TIN_9524": 5,
  "FRUIT_BATTA_9527": 1174,
  "TOAD_BATTA_9529": 603,
  "WORM_BATTA_9531": 852,
  "VEGETABLE_BATTA_9533": 1098,
  "CHEESE_PLUSTOM_BATTA_9535": 835,
  "TOAD_CRUNCHIES_9538": 3590,
  "SPICY_CRUNCHIES_9540": 499,
  "WORM_CRUNCHIES_9542": 1292,
  "CHOCCHIP_CRUNCHIES_9544": 1248,
  "WORM_HOLE_9547": 1628,
  "VEG_BALL_9549": 856,
  "TANGLED_TOADS_LEGS_9551": 2778,
  "CHOCOLATE_BOMB_9553": 806,
  "TYRAS_HELM": 1071,
  "VYREWATCH_TOP": 2299,
  "VYREWATCH_LEGS": 1987,
  "VYREWATCH_SHOES": 2454,
  "CITIZEN_TOP": 1644,
  "CITIZEN_TROUSERS": 2421,
  "CITIZEN_SHOES": 2701,
  "PROSELYTE_HARNESS_M": 26906,
  "INITIATE_HARNESS_M": 21324,
  "PROSELYTE_HARNESS_F": 27495,
  "PROSELYTE_SALLET": 4489,
  "PROSELYTE_HAUBERK": 11114,
  "PROSELYTE_CUISSE": 8214,
  "PROSELYTE_TASSET": 7110,
  "ELEMENTAL_HELMET": 775,
  "MIND_SHIELD": 18039,
  "MIND_HELMET": 1558,
  "DESERT_GOAT_HORN": 504,
  "GOAT_HORN_DUST": 587,
  "COMBAT_POTION_4": 1409,
  "COMBAT_POTION_3": 965,
  "COMBAT_POTION_2": 710,
  "COMBAT_POTION_1": 314,
  "RAW_BIRD_MEAT": 24,
  "ROAST_BIRD_MEAT": 14,
  "RAW_BEAST_MEAT": 8,
  "ROAST_BEAST_MEAT": 19,
  "SPICY_TOMATO": 95,
  "SPICY_MINCED_MEAT": 59,
  "HUNTER_POTION_4": 3910,
  "HUNTER_POTION_3": 2710,
  "HUNTER_POTION_2": 4003,
  "HUNTER_POTION_1": 928,
  "BIRD_SNARE": 7,
  "BOX_TRAP": 52,
  "BUTTERFLY_NET": 7,
  "BUTTERFLY_JAR": 103,
  "MAGIC_BOX": 627,
  "TEASING_STICK": 1,
  "RABBIT_SNARE": 1,
  "CHINCHOMPA_10033": 1083,
  "RED_CHINCHOMPA_10034": 1466,
  "KYATT_LEGS": 1897,
  "KYATT_TOP": 2059,
  "KYATT_HAT": 3764,
  "LARUPIA_LEGS": 1006,
  "LARUPIA_TOP": 1035,
  "LARUPIA_HAT": 1612,
  "GRAAHK_LEGS": 1827,
  "GRAAHK_TOP": 1124,
  "GRAAHK_HEADDRESS": 1652,
  "WOOD_CAMO_TOP": 4957,
  "WOOD_CAMO_LEGS": 5344,
  "JUNGLE_CAMO_TOP": 1119,
  "JUNGLE_CAMO_LEGS": 1160,
  "DESERT_CAMO_TOP": 4864,
  "DESERT_CAMO_LEGS": 5830,
  "POLAR_CAMO_TOP": 2283,
  "POLAR_CAMO_LEGS": 2158,
  "SPOTTED_CAPE": 922,
  "SPOTTIER_CAPE": 4036,
  "GLOVES_OF_SILENCE": 2204,
  "SPIKY_VAMBRACES": 98,
  "GREEN_SPIKY_VAMBS": 1698,
  "BLUE_SPIKY_VAMBS": 2457,
  "RED_SPIKY_VAMBS": 1785,
  "BLACK_SPIKY_VAMBS": 4139,
  "STRIPY_FEATHER": 4,
  "RED_FEATHER": 7,
  "BLUE_FEATHER": 17,
  "YELLOW_FEATHER": 47,
  "ORANGE_FEATHER": 5,
  "TATTY_LARUPIA_FUR": 496,
  "LARUPIA_FUR": 683,
  "TATTY_GRAAHK_FUR": 617,
  "GRAAHK_FUR": 925,
  "TATTY_KYATT_FUR": 574,
  "KYATT_FUR": 1525,
  "KEBBIT_SPIKE": 317,
  "LONG_KEBBIT_SPIKE": 3935,
  "KEBBIT_TEETH": 2282,
  "KEBBIT_TEETH_DUST": 2708,
  "KEBBIT_CLAWS": 648,
  "DARK_KEBBIT_FUR": 562,
  "POLAR_KEBBIT_FUR": 255,
  "FELDIP_WEASEL_FUR": 39,
  "COMMON_KEBBIT_FUR": 1186,
  "DESERT_DEVIL_FUR": 1152,
  "SPOTTED_KEBBIT_FUR": 57,
  "DASHING_KEBBIT_FUR": 1565,
  "BARB_TAIL_HARPOON": 20,
  "STRUNG_RABBIT_FOOT": 1516,
  "RABBIT_FOOT": 1780,
  "RAINBOW_FISH": 73,
  "RAW_RAINBOW_FISH": 214,
  "GUAM_TAR": 1,
  "MARRENTILL_TAR": 1,
  "TARROMIN_TAR": 1,
  "HARRALANDER_TAR": 8,
  "ORANGE_SALAMANDER": 35,
  "RED_SALAMANDER": 97,
  "BLACK_SALAMANDER": 326,
  "SWAMP_LIZARD": 143,
  "NOOSE_WAND": 1,
  "HUNTERS_CROSSBOW": 2022,
  "KEBBIT_BOLTS": 53,
  "LONG_KEBBIT_BOLTS": 694,
  "WILLOW_COMP_BOW": 3901,
  "YEW_COMP_BOW": 883,
  "MAGIC_COMP_BOW": 1719,
  "RUNE_HELM_H1": 44782,
  "RUNE_HELM_H2": 23210,
  "RUNE_HELM_H3": 21703,
  "RUNE_HELM_H4": 21554,
  "RUNE_HELM_H5": 21690,
  "ADAMANT_HELM_H1": 3313,
  "ADAMANT_HELM_H2": 3111,
  "ADAMANT_HELM_H3": 3037,
  "ADAMANT_HELM_H4": 2825,
  "ADAMANT_HELM_H5": 2497,
  "BLACK_HELM_H1": 4098,
  "BLACK_HELM_H2": 3358,
  "BLACK_HELM_H3": 3387,
  "BLACK_HELM_H4": 3450,
  "BLACK_HELM_H5": 3359,
  "BOBS_RED_SHIRT": 14562,
  "BOBS_BLUE_SHIRT": 16037,
  "BOBS_GREEN_SHIRT": 15658,
  "BOBS_BLACK_SHIRT": 24741,
  "BOBS_PURPLE_SHIRT": 14903,
  "PURPLE_FIRELIGHTER": 73,
  "WHITE_FIRELIGHTER": 44,
  "_3RD_AGE_RANGE_TOP": 27471296,
  "_3RD_AGE_RANGE_LEGS": 14798652,
  "_3RD_AGE_RANGE_COIF": 5785240,
  "_3RD_AGE_VAMBRACES": 4406911,
  "_3RD_AGE_ROBE_TOP": 69129956,
  "_3RD_AGE_ROBE": 17433794,
  "_3RD_AGE_MAGE_HAT": 10178317,
  "_3RD_AGE_AMULET": 16130751,
  "_3RD_AGE_PLATELEGS": 62462555,
  "_3RD_AGE_PLATEBODY": 55990967,
  "_3RD_AGE_FULL_HELMET": 14762226,
  "_3RD_AGE_KITESHIELD": 25190983,
  "AMULET_OF_GLORY_T4": 44871,
  "AMULET_OF_GLORY_T": 48289,
  "STRENGTH_AMULET_T": 13417,
  "AMULET_OF_MAGIC_T": 33033,
  "ZAMORAK_BRACERS": 41493,
  "ZAMORAK_DHIDE": 615559,
  "ZAMORAK_CHAPS": 270464,
  "ZAMORAK_COIF": 60319,
  "GUTHIX_BRACERS": 9054,
  "GUTHIX_DHIDE": 274394,
  "GUTHIX_CHAPS": 199597,
  "GUTHIX_COIF": 64453,
  "SARADOMIN_BRACERS": 27634,
  "SARADOMIN_DHIDE": 530677,
  "SARADOMIN_CHAPS": 304309,
  "SARADOMIN_COIF": 58869,
  "A_POWDERED_WIG": 7976,
  "FLARED_TROUSERS": 536988,
  "PANTALOONS": 2441,
  "SLEEPING_CAP": 13973,
  "BLACK_ELEGANT_SHIRT": 12355,
  "BLACK_ELEGANT_LEGS": 3532,
  "RED_ELEGANT_SHIRT": 62565,
  "RED_ELEGANT_LEGS": 26984,
  "BLUE_ELEGANT_SHIRT": 54098,
  "BLUE_ELEGANT_LEGS": 24557,
  "GREEN_ELEGANT_SHIRT": 67343,
  "GREEN_ELEGANT_LEGS": 18241,
  "PURPLE_ELEGANT_SHIRT": 2871,
  "PURPLE_ELEGANT_LEGS": 1924,
  "WHITE_ELEGANT_BLOUSE": 4533,
  "WHITE_ELEGANT_SKIRT": 1208,
  "RED_ELEGANT_BLOUSE": 7204,
  "RED_ELEGANT_SKIRT": 2519,
  "BLUE_ELEGANT_BLOUSE": 8406,
  "BLUE_ELEGANT_SKIRT": 2027,
  "GREEN_ELEGANT_BLOUSE": 5763,
  "GREEN_ELEGANT_SKIRT": 1850,
  "PURPLE_ELEGANT_BLOUSE": 964,
  "PURPLE_ELEGANT_SKIRT": 978,
  "SARADOMIN_CROZIER": 4333,
  "GUTHIX_CROZIER": 3054,
  "ZAMORAK_CROZIER": 5530,
  "SARADOMIN_CLOAK": 33821,
  "GUTHIX_CLOAK": 11090,
  "ZAMORAK_CLOAK": 20573,
  "SARADOMIN_MITRE": 13618,
  "GUTHIX_MITRE": 14166,
  "ZAMORAK_MITRE": 17322,
  "SARADOMIN_ROBE_TOP": 87011,
  "ZAMORAK_ROBE_TOP": 192493,
  "GUTHIX_ROBE_TOP": 56915,
  "SARADOMIN_ROBE_LEGS": 72080,
  "GUTHIX_ROBE_LEGS": 73864,
  "ZAMORAK_ROBE_LEGS": 76992,
  "SARADOMIN_STOLE": 5684,
  "GUTHIX_STOLE": 4007,
  "ZAMORAK_STOLE": 4435,
  "PURPLE_SWEETS": 2114,
  "POLISHED_BUTTONS": 363,
  "GRANITE_BODY": 62852,
  "GRANITE_HELM": 32536,
  "ARCTIC_PYRE_LOGS": 1869,
  "ARCTIC_PINE_LOGS": 556,
  "SPLIT_LOG": 808,
  "HAIR": 174,
  "RAW_YAK_MEAT": 38,
  "YAK_HIDE": 123,
  "CURED_YAK_HIDE": 346,
  "YAK_HIDE_ARMOUR": 593,
  "YAK_HIDE_ARMOUR_10824": 593,
  "FREMENNIK_SHIELD_10826": 1706,
  "HELM_OF_NEITIZNOT": 31420,
  "WOODEN_CAT": 87,
  "SANFEW_SERUM_4": 20963,
  "SANFEW_SERUM_3": 14110,
  "SANFEW_SERUM_2": 9342,
  "SANFEW_SERUM_1": 4714,
  "NAIL_BEAST_NAILS": 9690,
  "SLAYER_BELL": 212,
  "FROG_LEATHER_BODY": 834,
  "FROG_LEATHER_CHAPS": 506,
  "FROG_LEATHER_BOOTS": 578,
  "LIGHT_ORB": 91,
  "SWAMP_WEED": 113,
  "CAVE_GOBLIN_WIRE": 885,
  "GOBLIN_BOOK": 187,
  "BRINE_SABRE": 186565,
  "ANCIENT_MACE": 3625,
  "BRACELET_MOULD": 341,
  "GOLD_BRACELET": 180,
  "SAPPHIRE_BRACELET": 516,
  "BRACELET_OF_CLAY": 591,
  "EMERALD_BRACELET": 737,
  "CASTLE_WARS_BRACELET_3": 888,
  "RUBY_BRACELET": 1194,
  "INOCULATION_BRACELET": 1331,
  "PHOENIX_NECKLACE": 2224,
  "DIAMOND_BRACELET": 2118,
  "ABYSSAL_BRACELET_5": 2315,
  "SKILLS_NECKLACE": 12264,
  "DRAGONSTONE_BRACELET": 12121,
  "COMBAT_BRACELET": 12359,
  "BERSERKER_NECKLACE": 2900095,
  "ONYX_BRACELET": 2943658,
  "REGEN_BRACELET": 2894166,
  "DWARVEN_HELMET": 41735,
  "SHRUNK_OGLEROOT": 20,
  "DRAGON_ARROW": 818,
  "DRAGON_ARROW_P": 1145,
  "DRAGON_ARROW_P_PLUS": 1613,
  "DRAGON_ARROW_P_PLUS_PLUS": 2059,
  "DRAGON_DART": 3239,
  "DRAGON_DART_P": 3425,
  "DRAGON_DART_TIP": 3348,
  "DRAGON_DART_P_PLUS": 3883,
  "DRAGON_DART_P_PLUS_PLUS": 3601,
  "DARK_BOW": 587068,
  "DRAGON_ARROWTIPS": 895,
  "BABY_IMPLING_JAR": 2148,
  "YOUNG_IMPLING_JAR": 2572,
  "GOURMET_IMPLING_JAR": 2836,
  "EARTH_IMPLING_JAR": 2112,
  "ESSENCE_IMPLING_JAR": 2757,
  "ECLECTIC_IMPLING_JAR": 3816,
  "NATURE_IMPLING_JAR": 3712,
  "MAGPIE_IMPLING_JAR": 18867,
  "NINJA_IMPLING_JAR": 36730,
  "DRAGON_IMPLING_JAR": 432011,
  "IMPLING_JAR": 1068,
  "CAVALIER_MASK": 66620,
  "DRAGONFIRE_SHIELD_11284": 6271806,
  "DRACONIC_VISAGE": 6226963,
  "ROE": 21,
  "CAVIAR": 298,
  "LEAPING_TROUT": 5,
  "LEAPING_SALMON": 7,
  "LEAPING_STURGEON": 137,
  "FISH_OFFCUTS": 33,
  "DRAGON_FULL_HELM": 42131778,
  "BRONZE_HASTA": 54,
  "IRON_HASTA": 17,
  "STEEL_HASTA": 98,
  "MITHRIL_HASTA": 318,
  "ADAMANT_HASTA": 975,
  "RUNE_HASTA": 12001,
  "BRONZE_HASTA_P": 4830,
  "BRONZE_HASTA_P_PLUS": 5228,
  "BRONZE_HASTA_P_PLUS_PLUS": 5516,
  "IRON_HASTA_P": 3097,
  "IRON_HASTA_P_PLUS": 3000,
  "IRON_HASTA_P_PLUS_PLUS": 3312,
  "STEEL_HASTA_P": 9040,
  "STEEL_HASTA_P_PLUS": 9818,
  "STEEL_HASTA_P_PLUS_PLUS": 9449,
  "MITHRIL_HASTA_P": 9669,
  "MITHRIL_HASTA_P_PLUS": 9951,
  "MITHRIL_HASTA_P_PLUS_PLUS": 10759,
  "ADAMANT_HASTA_P": 4951,
  "ADAMANT_HASTA_P_PLUS": 5260,
  "ADAMANT_HASTA_P_PLUS_PLUS": 7737,
  "RUNE_HASTA_P": 32707,
  "RUNE_HASTA_P_PLUS": 29288,
  "RUNE_HASTA_P_PLUS_PLUS": 17011,
  "ATTACK_MIX_2": 119,
  "ATTACK_MIX_1": 194,
  "ANTIPOISON_MIX_2": 878,
  "ANTIPOISON_MIX_1": 822,
  "RELICYMS_MIX_2": 494,
  "RELICYMS_MIX_1": 250,
  "STRENGTH_MIX_1": 446,
  "STRENGTH_MIX_2": 559,
  "COMBAT_MIX_2": 582,
  "COMBAT_MIX_1": 303,
  "RESTORE_MIX_2": 821,
  "RESTORE_MIX_1": 455,
  "ENERGY_MIX_2": 583,
  "ENERGY_MIX_1": 254,
  "DEFENCE_MIX_2": 43,
  "DEFENCE_MIX_1": 18,
  "AGILITY_MIX_2": 1174,
  "AGILITY_MIX_1": 772,
  "PRAYER_MIX_2": 4647,
  "PRAYER_MIX_1": 2334,
  "SUPERATTACK_MIX_2": 608,
  "SUPERATTACK_MIX_1": 1697,
  "ANTI_POISON_SUPERMIX_2": 868,
  "ANTI_POISON_SUPERMIX_1": 1054,
  "FISHING_MIX_2": 119,
  "FISHING_MIX_1": 58,
  "SUPER_ENERGY_MIX_2": 1903,
  "SUPER_ENERGY_MIX_1": 844,
  "SUPER_STR_MIX_2": 1016,
  "SUPER_STR_MIX_1": 1377,
  "MAGIC_ESSENCE_MIX_2": 912,
  "MAGIC_ESSENCE_MIX_1": 286,
  "SUPER_RESTORE_MIX_2": 6331,
  "SUPER_RESTORE_MIX_1": 3886,
  "SUPER_DEF_MIX_1": 452,
  "ANTIDOTE_PLUS_MIX_2": 3094,
  "ANTIDOTE_PLUS_MIX_1": 1822,
  "ANTIFIRE_MIX_2": 725,
  "ANTIFIRE_MIX_1": 431,
  "RANGING_MIX_2": 1087,
  "RANGING_MIX_1": 538,
  "MAGIC_MIX_2": 1550,
  "MAGIC_MIX_1": 1214,
  "HUNTING_MIX_2": 252,
  "HUNTING_MIX_1": 104,
  "ZAMORAK_MIX_2": 508,
  "ZAMORAK_MIX_1": 250,
  "FIRE_RUNE_11686": 5,
  "WATER_RUNE_11687": 5,
  "AIR_RUNE_11688": 5,
  "EARTH_RUNE_11689": 5,
  "MIND_RUNE_11690": 4,
  "BODY_RUNE_11691": 4,
  "DEATH_RUNE_11692": 224,
  "NATURE_RUNE_11693": 216,
  "CHAOS_RUNE_11694": 96,
  "LAW_RUNE_11695": 211,
  "COSMIC_RUNE_11696": 122,
  "BLOOD_RUNE_11697": 339,
  "SOUL_RUNE_11698": 146,
  "ASTRAL_RUNE_11699": 171,
  "BRONZE_ARROW_11700": 4,
  "IRON_ARROW_11701": 6,
  "STEEL_ARROW_11702": 33,
  "MITHRIL_ARROW_11703": 32,
  "CHAOS_RUNE_NZ": 96,
  "DEATH_RUNE_NZ": 224,
  "BLOOD_RUNE_NZ": 339,
  "AIR_RUNE_NZ": 5,
  "WATER_RUNE_NZ": 5,
  "EARTH_RUNE_NZ": 5,
  "FIRE_RUNE_NZ": 5,
  "ARMADYL_CROSSBOW": 28199796,
  "STEAM_BATTLESTAFF": 490944,
  "MYSTIC_STEAM_STAFF": 527430,
  "STAFF_OF_THE_DEAD": 7796636,
  "GODSWORD_BLADE": 498695,
  "ARMADYL_GODSWORD": 14315995,
  "BANDOS_GODSWORD": 10010641,
  "SARADOMIN_GODSWORD": 38502590,
  "ZAMORAK_GODSWORD": 5621128,
  "ARMADYL_HILT": 13363186,
  "BANDOS_HILT": 9492942,
  "SARADOMIN_HILT": 37579398,
  "ZAMORAK_HILT": 4743941,
  "GODSWORD_SHARD_1": 157951,
  "GODSWORD_SHARD_2": 163821,
  "GODSWORD_SHARD_3": 156853,
  "ZAMORAKIAN_SPEAR": 14915429,
  "ARMADYL_HELMET": 5630205,
  "ARMADYL_CHESTPLATE": 42903493,
  "ARMADYL_CHAINSKIRT": 36484137,
  "BANDOS_CHESTPLATE": 19328722,
  "BANDOS_TASSETS": 30758490,
  "BANDOS_BOOTS": 204855,
  "SARADOMIN_SWORD": 1032797,
  "DRAGON_BOOTS": 429955,
  "BROAD_ARROWHEADS": 52,
  "BROAD_BOLTS": 61,
  "UNFINISHED_BROAD_BOLTS": 56,
  "ZAMORAKIAN_HASTA": 15096472,
  "LEAF_BLADED_SWORD": 40405,
  "TRIDENT_OF_THE_SEAS_FULL": 971377,
  "UNCHARGED_TRIDENT": 73349,
  "DRAGON_PICKAXE": 5930371,
  "MALEDICTION_WARD": 3394197,
  "ODIUM_WARD": 2721693,
  "ODIUM_SHARD_1": 200860,
  "ODIUM_SHARD_2": 838179,
  "ODIUM_SHARD_3": 1695115,
  "MALEDICTION_SHARD_1": 339392,
  "MALEDICTION_SHARD_2": 395693,
  "MALEDICTION_SHARD_3": 2433615,
  "RAW_DARK_CRAB": 1076,
  "DARK_CRAB": 1202,
  "DARK_FISHING_BAIT": 3,
  "LAVA_DRAGON_BONES": 4263,
  "EXTENDED_ANTIFIRE_4": 874,
  "EXTENDED_ANTIFIRE_3": 625,
  "EXTENDED_ANTIFIRE_2": 539,
  "EXTENDED_ANTIFIRE_1": 239,
  "BLACK_CHINCHOMPA": 2986,
  "EXTENDED_ANTIFIRE_MIX_2": 1091,
  "EXTENDED_ANTIFIRE_MIX_1": 472,
  "AMULET_OF_GLORY_T6": 59091,
  "SKILLS_NECKLACE_6": 13842,
  "COMBAT_BRACELET_6": 13086,
  "AMULET_OF_GLORY_6": 12907,
  "RING_OF_WEALTH_5": 13349,
  "FEDORA": 5248,
  "LAVA_SCALE": 3229,
  "LAVA_SCALE_SHARD": 431,
  "SMOKE_BATTLESTAFF": 3661073,
  "MYSTIC_SMOKE_STAFF": 3733082,
  "OCCULT_NECKLACE": 940478,
  "KRAKEN_TENTACLE": 490520,
  "JAR_OF_DIRT": 7359,
  "ANCIENT_ROBE_TOP": 69128,
  "ANCIENT_ROBE_LEGS": 61130,
  "ANCIENT_CLOAK": 10994,
  "ANCIENT_CROZIER": 4250,
  "ANCIENT_STOLE": 4235,
  "ANCIENT_MITRE": 15872,
  "BRONZE_PLATEBODY_G": 104714,
  "BRONZE_PLATELEGS_G": 31787,
  "BRONZE_PLATESKIRT_G": 2449,
  "BRONZE_FULL_HELM_G": 59742,
  "BRONZE_KITESHIELD_G": 36775,
  "BRONZE_PLATEBODY_T": 8727,
  "BRONZE_PLATELEGS_T": 1999,
  "BRONZE_PLATESKIRT_T": 1010,
  "BRONZE_FULL_HELM_T": 7123,
  "BRONZE_KITESHIELD_T": 4557,
  "IRON_PLATEBODY_T": 115510,
  "IRON_PLATELEGS_T": 19324,
  "IRON_PLATESKIRT_T": 1072,
  "IRON_FULL_HELM_T": 60116,
  "IRON_KITESHIELD_T": 57295,
  "IRON_PLATEBODY_G": 417677,
  "IRON_PLATELEGS_G": 42732,
  "IRON_PLATESKIRT_G": 4434,
  "IRON_FULL_HELM_G": 204662,
  "IRON_KITESHIELD_G": 168320,
  "BEANIE": 5083,
  "RED_BERET": 28954,
  "IMP_MASK": 11416,
  "GOBLIN_MASK": 16374,
  "ARMADYL_ROBE_TOP": 55693,
  "ARMADYL_ROBE_LEGS": 63668,
  "ARMADYL_STOLE": 4656,
  "ARMADYL_MITRE": 13880,
  "ARMADYL_CLOAK": 14306,
  "ARMADYL_CROZIER": 2804,
  "BANDOS_ROBE_TOP": 60310,
  "BANDOS_ROBE_LEGS": 52265,
  "BANDOS_STOLE": 4882,
  "BANDOS_MITRE": 12894,
  "BANDOS_CLOAK": 25273,
  "BANDOS_CROZIER": 3232,
  "MITHRIL_PLATEBODY_G": 6885,
  "MITHRIL_PLATELEGS_G": 4974,
  "MITHRIL_KITESHIELD_G": 4890,
  "MITHRIL_FULL_HELM_G": 4908,
  "MITHRIL_PLATESKIRT_G": 1387,
  "MITHRIL_PLATEBODY_T": 3064,
  "MITHRIL_PLATELEGS_T": 2358,
  "MITHRIL_KITESHIELD_T": 1860,
  "MITHRIL_FULL_HELM_T": 1657,
  "MITHRIL_PLATESKIRT_T": 1384,
  "BLACK_PICKAXE": 1317,
  "WHITE_HEADBAND": 2216,
  "BLUE_HEADBAND": 1234,
  "GOLD_HEADBAND": 709,
  "PINK_HEADBAND": 2446,
  "GREEN_HEADBAND": 944,
  "PINK_BOATER": 8968,
  "PURPLE_BOATER": 1450,
  "WHITE_BOATER": 1445,
  "PINK_ELEGANT_SHIRT": 2567,
  "PINK_ELEGANT_LEGS": 1160,
  "CRIER_HAT": 3035,
  "WHITE_CAVALIER": 7283,
  "RED_CAVALIER": 2654,
  "NAVY_CAVALIER": 2630,
  "RED_DHIDE_BODY_G": 6687,
  "RED_DHIDE_CHAPS_G": 15393,
  "RED_DHIDE_BODY_T": 6244,
  "RED_DHIDE_CHAPS_T": 2918,
  "BRIEFCASE": 226793,
  "SAGACIOUS_SPECTACLES": 1056651,
  "PINK_ELEGANT_BLOUSE": 1425,
  "PINK_ELEGANT_SKIRT": 1356,
  "GOLD_ELEGANT_BLOUSE": 1455,
  "GOLD_ELEGANT_SKIRT": 987,
  "GOLD_ELEGANT_SHIRT": 1347,
  "GOLD_ELEGANT_LEGS": 1155,
  "MUSKETEER_HAT": 150298,
  "MONOCLE": 8242,
  "BIG_PIRATE_HAT": 112030,
  "KATANA": 178773,
  "LEPRECHAUN_HAT": 3575,
  "CAT_MASK": 5852,
  "BRONZE_DRAGON_MASK": 5530,
  "IRON_DRAGON_MASK": 5827,
  "STEEL_DRAGON_MASK": 8777,
  "MITHRIL_DRAGON_MASK": 5658,
  "LAVA_DRAGON_MASK": 2251642,
  "DRAGON_CANE": 23151,
  "BLACK_CANE": 5334,
  "ADAMANT_CANE": 1255,
  "RUNE_CANE": 8520,
  "BLACK_DHIDE_BODY_G": 27687,
  "BLACK_DHIDE_CHAPS_G": 1289942,
  "BLACK_DHIDE_BODY_T": 15913,
  "BLACK_DHIDE_CHAPS_T": 97282,
  "GILDED_SCIMITAR": 14952009,
  "GILDED_BOOTS": 6154342,
  "ROYAL_GOWN_TOP": 127267,
  "ROYAL_GOWN_BOTTOM": 81057,
  "ROYAL_CROWN": 264565,
  "PARTYHAT_SPECS": 1128511,
  "NARDAH_TELEPORT": 3395,
  "DIGSITE_TELEPORT": 8969,
  "FELDIP_HILLS_TELEPORT": 941,
  "LUNAR_ISLE_TELEPORT": 2290,
  "MORTTON_TELEPORT": 5709,
  "PEST_CONTROL_TELEPORT": 386,
  "PISCATORIS_TELEPORT": 3535,
  "TAI_BWO_WANNAI_TELEPORT": 8299,
  "ELF_CAMP_TELEPORT": 5053,
  "MOS_LEHARMLESS_TELEPORT": 584,
  "PIRATE_HAT_PATCH": 162204,
  "_3RD_AGE_WAND": 67198337,
  "_3RD_AGE_BOW": 410915102,
  "_3RD_AGE_LONGSWORD": 533438920,
  "PENGUIN_MASK": 4304,
  "AFRO": 56872,
  "TOP_HAT": 88725,
  "TOP_HAT_MONOCLE": 102679,
  "_3RD_AGE_CLOAK": 188506686,
  "ROYAL_SCEPTRE": 38868,
  "MUSKETEER_TABARD": 72194,
  "MUSKETEER_PANTS": 27050,
  "BLACK_SKIRT_G": 41652,
  "BLACK_SKIRT_T": 23649,
  "BLACK_WIZARD_ROBE_G": 289581,
  "BLACK_WIZARD_ROBE_T": 93078,
  "BLACK_WIZARD_HAT_G": 200008,
  "BLACK_WIZARD_HAT_T": 92780,
  "ANCIENT_PLATEBODY": 39645,
  "ANCIENT_PLATELEGS": 39280,
  "ANCIENT_PLATESKIRT": 38293,
  "ANCIENT_FULL_HELM": 40915,
  "ANCIENT_KITESHIELD": 44187,
  "ARMADYL_PLATEBODY": 39474,
  "ARMADYL_PLATELEGS": 37857,
  "ARMADYL_PLATESKIRT": 37855,
  "ARMADYL_FULL_HELM": 20892,
  "ARMADYL_KITESHIELD": 32714,
  "BANDOS_PLATEBODY": 41863,
  "BANDOS_PLATELEGS": 37925,
  "BANDOS_PLATESKIRT": 37137,
  "BANDOS_FULL_HELM": 20785,
  "BANDOS_KITESHIELD": 31938,
  "ANCIENT_BRACERS": 7520,
  "ANCIENT_DHIDE": 307406,
  "ANCIENT_CHAPS": 205175,
  "ANCIENT_COIF": 61416,
  "BANDOS_BRACERS": 22046,
  "BANDOS_DHIDE": 279284,
  "BANDOS_CHAPS": 194694,
  "BANDOS_COIF": 60021,
  "ARMADYL_BRACERS": 67001,
  "ARMADYL_DHIDE": 482288,
  "ARMADYL_CHAPS": 424923,
  "ARMADYL_COIF": 71744,
  "EXPLORER_BACKPACK": 19377,
  "PITH_HELMET": 1914,
  "GREEN_DRAGON_MASK": 5661,
  "BLUE_DRAGON_MASK": 5752,
  "RED_DRAGON_MASK": 6138,
  "BLACK_DRAGON_MASK": 15005,
  "FURY_ORNAMENT_KIT": 1854629,
  "DARK_INFINITY_COLOUR_KIT": 23716,
  "LIGHT_INFINITY_COLOUR_KIT": 7284,
  "DRAGON_SQ_SHIELD_ORNAMENT_KIT": 7221,
  "DRAGON_CHAINBODY_ORNAMENT_KIT": 18743,
  "DRAGON_LEGS_SKIRT_ORNAMENT_KIT": 62457,
  "DRAGON_FULL_HELM_ORNAMENT_KIT": 18367,
  "DEERSTALKER": 20581,
  "RANGERS_TUNIC": 8716779,
  "HOLY_SANDALS": 627775,
  "RING_OF_THE_GODS": 16091991,
  "TYRANNICAL_RING": 1516435,
  "TREASONOUS_RING": 400629,
  "BANDOS_PAGE_1": 3655,
  "BANDOS_PAGE_2": 4219,
  "BANDOS_PAGE_3": 3341,
  "BANDOS_PAGE_4": 3408,
  "ARMADYL_PAGE_1": 202982,
  "ARMADYL_PAGE_2": 226522,
  "ARMADYL_PAGE_3": 190337,
  "ARMADYL_PAGE_4": 298981,
  "ANCIENT_PAGE_1": 135254,
  "ANCIENT_PAGE_2": 117920,
  "ANCIENT_PAGE_3": 222450,
  "ANCIENT_PAGE_4": 123962,
  "STAMINA_POTION_4": 4458,
  "STAMINA_POTION_3": 3313,
  "STAMINA_POTION_2": 2349,
  "STAMINA_POTION_1": 1145,
  "STAMINA_MIX_2": 3933,
  "STAMINA_MIX_1": 2099,
  "AMYLASE_CRYSTAL": 837,
  "LUMBERYARD_TELEPORT": 15318,
  "SUPER_COMBAT_POTION_4": 9281,
  "SUPER_COMBAT_POTION_3": 6994,
  "SUPER_COMBAT_POTION_2": 4573,
  "SUPER_COMBAT_POTION_1": 2343,
  "BLUE_DARK_BOW_PAINT": 126801,
  "GREEN_DARK_BOW_PAINT": 121819,
  "YELLOW_DARK_BOW_PAINT": 127368,
  "WHITE_DARK_BOW_PAINT": 126423,
  "FROZEN_WHIP_MIX": 111796,
  "VOLCANIC_WHIP_MIX": 112103,
  "ANNAKARL_TELEPORT": 2151,
  "CARRALLANGAR_TELEPORT": 2122,
  "DAREEYAK_TELEPORT": 2098,
  "GHORROCK_TELEPORT": 2148,
  "KHARYRLL_TELEPORT": 2098,
  "LASSAR_TELEPORT": 2528,
  "PADDEWWA_TELEPORT": 2177,
  "SENNTISTEN_TELEPORT": 2420,
  "RING_OF_WEALTH_SCROLL": 13126,
  "MAGIC_SHORTBOW_SCROLL": 21891,
  "CLUE_BOX": 23323,
  "STEAM_STAFF_UPGRADE_KIT": 59103,
  "DRAGON_PICKAXE_UPGRADE_KIT": 65871,
  "WARD_UPGRADE_KIT": 77769,
  "SARADOMINS_TEAR": 4648660,
  "ELYSIAN_SPIRIT_SHIELD": 646354967,
  "ELYSIAN_SIGIL": 616592811,
  "SPECTRAL_SPIRIT_SHIELD": 49521324,
  "SPECTRAL_SIGIL": 46455214,
  "ARCANE_SPIRIT_SHIELD": 131113690,
  "ARCANE_SIGIL": 128810819,
  "SPIRIT_SHIELD": 186072,
  "BLESSED_SPIRIT_SHIELD": 1461735,
  "HOLY_ELIXIR": 1153771,
  "BOUNTY_TELEPORT_SCROLL": 1776648,
  "GRANITE_CLAMP": 56747,
  "AMULET_OF_THE_DAMNED_FULL": 142388,
  "DWARF_CANNON_SET": 757004,
  "GREEN_DRAGONHIDE_SET": 7970,
  "BLUE_DRAGONHIDE_SET": 9577,
  "RED_DRAGONHIDE_SET": 11997,
  "BLACK_DRAGONHIDE_SET": 16423,
  "GUTHANS_ARMOUR_SET": 3018130,
  "VERACS_ARMOUR_SET": 1268956,
  "DHAROKS_ARMOUR_SET": 3451593,
  "TORAGS_ARMOUR_SET": 778405,
  "AHRIMS_ARMOUR_SET": 4036529,
  "KARILS_ARMOUR_SET": 2258461,
  "JAR_OF_SAND": 907330,
  "UNCHARGED_TOXIC_TRIDENT": 3727697,
  "TOXIC_STAFF_UNCHARGED": 11410837,
  "ANTI_VENOM_4": 2990,
  "ANTI_VENOM_3": 2336,
  "ANTI_VENOM_2": 1871,
  "ANTI_VENOM_1": 796,
  "ANTI_VENOM_PLUS_4": 9583,
  "ANTI_VENOM_PLUS_3": 7673,
  "ANTI_VENOM_PLUS_2": 4766,
  "ANTI_VENOM_PLUS_1": 2370,
  "TANZANITE_FANG": 3829862,
  "TOXIC_BLOWPIPE_EMPTY": 3847150,
  "SERPENTINE_VISAGE": 3657067,
  "SERPENTINE_HELM_UNCHARGED": 3700401,
  "MAGIC_FANG": 3650254,
  "ZULRAHS_SCALES": 183,
  "JAR_OF_SWAMP": 24905,
  "ZUL_ANDRA_TELEPORT": 18125,
  "BRONZE_SET_LG": 289,
  "BRONZE_SET_SK": 275,
  "BRONZE_TRIMMED_SET_LG": 41177,
  "BRONZE_TRIMMED_SET_SK": 50853,
  "BRONZE_GOLD_TRIMMED_SET_LG": 252505,
  "BRONZE_GOLD_TRIMMED_SET_SK": 262802,
  "IRON_SET_LG": 433,
  "IRON_SET_SK": 541,
  "IRON_TRIMMED_SET_LG": 280992,
  "IRON_TRIMMED_SET_SK": 339995,
  "IRON_GOLD_TRIMMED_SET_LG": 866101,
  "IRON_GOLD_TRIMMED_SET_SK": 1014226,
  "STEEL_SET_LG": 1818,
  "STEEL_SET_SK": 1788,
  "BLACK_SET_LG": 6837,
  "BLACK_SET_SK": 9815,
  "BLACK_TRIMMED_SET_LG": 138292,
  "BLACK_TRIMMED_SET_SK": 147955,
  "BLACK_GOLD_TRIMMED_SET_LG": 624613,
  "BLACK_GOLD_TRIMMED_SET_SK": 691367,
  "MITHRIL_SET_LG": 6461,
  "MITHRIL_SET_SK": 7319,
  "MITHRIL_TRIMMED_SET_LG": 16362,
  "MITHRIL_TRIMMED_SET_SK": 18303,
  "MITHRIL_GOLD_TRIMMED_SET_LG": 29044,
  "MITHRIL_GOLD_TRIMMED_SET_SK": 34958,
  "ADAMANT_SET_LG": 18243,
  "ADAMANT_SET_SK": 21281,
  "ADAMANT_TRIMMED_SET_LG": 22483,
  "ADAMANT_TRIMMED_SET_SK": 31589,
  "ADAMANT_GOLD_TRIMMED_SET_LG": 68595,
  "ADAMANT_GOLD_TRIMMED_SET_SK": 84840,
  "RUNE_ARMOUR_SET_LG": 129800,
  "RUNE_ARMOUR_SET_SK": 132403,
  "RUNE_TRIMMED_SET_LG": 145935,
  "RUNE_TRIMMED_SET_SK": 165711,
  "RUNE_GOLD_TRIMMED_SET_LG": 318367,
  "RUNE_GOLD_TRIMMED_SET_SK": 335487,
  "GILDED_ARMOUR_SET_LG": 10586359,
  "GILDED_ARMOUR_SET_SK": 6712943,
  "SARADOMIN_ARMOUR_SET_LG": 267139,
  "SARADOMIN_ARMOUR_SET_SK": 271166,
  "ZAMORAK_ARMOUR_SET_LG": 449715,
  "ZAMORAK_ARMOUR_SET_SK": 468968,
  "GUTHIX_ARMOUR_SET_LG": 163912,
  "GUTHIX_ARMOUR_SET_SK": 163721,
  "ARMADYL_RUNE_ARMOUR_SET_LG": 143607,
  "ARMADYL_RUNE_ARMOUR_SET_SK": 162110,
  "BANDOS_RUNE_ARMOUR_SET_LG": 147854,
  "BANDOS_RUNE_ARMOUR_SET_SK": 155668,
  "ANCIENT_RUNE_ARMOUR_SET_LG": 180126,
  "ANCIENT_RUNE_ARMOUR_SET_SK": 186451,
  "COMBAT_POTION_SET": 781,
  "SUPER_POTION_SET": 2898,
  "HOLY_BOOK_PAGE_SET": 20594,
  "UNHOLY_BOOK_PAGE_SET": 1276047,
  "BOOK_OF_BALANCE_PAGE_SET": 32197,
  "BOOK_OF_WAR_PAGE_SET": 23880,
  "BOOK_OF_LAW_PAGE_SET": 961721,
  "BOOK_OF_DARKNESS_PAGE_SET": 631272,
  "ZAMORAK_DRAGONHIDE_SET": 990179,
  "SARADOMIN_DRAGONHIDE_SET": 956981,
  "GUTHIX_DRAGONHIDE_SET": 576119,
  "BANDOS_DRAGONHIDE_SET": 587254,
  "ARMADYL_DRAGONHIDE_SET": 1064531,
  "ANCIENT_DRAGONHIDE_SET": 603769,
  "PARTYHAT_SET": 42712,
  "HALLOWEEN_MASK_SET": 30086,
  "ETERNAL_CRYSTAL": 3997627,
  "PEGASIAN_CRYSTAL": 154549,
  "PRIMORDIAL_CRYSTAL": 32866756,
  "SMOULDERING_STONE": 2373829,
  "ETERNAL_BOOTS": 5088430,
  "PEGASIAN_BOOTS": 30426533,
  "PRIMORDIAL_BOOTS": 33192128,
  "JAR_OF_SOULS": 109513,
  "SARADOMINS_LIGHT": 114310,
  "ABYSSAL_BLUDGEON": 29257909,
  "ABYSSAL_DAGGER": 8731049,
  "ABYSSAL_DAGGER_P": 8489096,
  "ABYSSAL_DAGGER_P_PLUS": 8493682,
  "ABYSSAL_DAGGER_P_PLUS_PLUS": 8742173,
  "JAR_OF_MIASMA": 73407,
  "XERICIAN_FABRIC": 2107,
  "XERICIAN_HAT": 6571,
  "XERICIAN_TOP": 9880,
  "XERICIAN_ROBE": 8746,
  "LIZARDMAN_FANG": 17,
  "SALTPETRE": 4,
  "SANDWORMS": 95,
  "RAW_ANGLERFISH": 1457,
  "ANGLERFISH": 1458,
  "DYNAMITE": 623,
  "DRAGON_WARHAMMER": 54436243,
  "DRAGON_CLAWS": 65498261,
  "GRAPE_SEED": 6860,
  "LIGHT_BALLISTA": 590031,
  "HEAVY_BALLISTA": 573080,
  "DRAGON_JAVELIN": 837,
  "DRAGON_JAVELIN_P": 1213,
  "DRAGON_JAVELIN_P_PLUS": 1658,
  "DRAGON_JAVELIN_P_PLUS_PLUS": 2160,
  "ZENYTE": 14385635,
  "UNCUT_ZENYTE": 14156046,
  "ZENYTE_AMULET_U": 13800000,
  "ZENYTE_SHARD": 13235900,
  "ZENYTE_BRACELET": 16547499,
  "ZENYTE_NECKLACE": 16636688,
  "ZENYTE_RING": 16227148,
  "ZENYTE_AMULET": 15586133,
  "TORMENTED_BRACELET": 16166513,
  "NECKLACE_OF_ANGUISH": 16195143,
  "RING_OF_SUFFERING": 16222344,
  "AMULET_OF_TORTURE": 16213783,
  "BRONZE_JAVELIN_HEADS": 27,
  "IRON_JAVELIN_HEADS": 35,
  "STEEL_JAVELIN_HEADS": 67,
  "MITHRIL_JAVELIN_HEADS": 121,
  "ADAMANT_JAVELIN_HEADS": 175,
  "RUNE_JAVELIN_HEADS": 600,
  "DRAGON_JAVELIN_HEADS": 952,
  "JAVELIN_SHAFT": 1,
  "LIGHT_FRAME": 29415,
  "HEAVY_FRAME": 36155,
  "BALLISTA_LIMBS": 29360,
  "INCOMPLETE_LIGHT_BALLISTA": 65754,
  "INCOMPLETE_HEAVY_BALLISTA": 86052,
  "BALLISTA_SPRING": 29672,
  "UNSTRUNG_LIGHT_BALLISTA": 91887,
  "UNSTRUNG_HEAVY_BALLISTA": 106866,
  "MONKEY_TAIL": 468557,
  "LUMBRIDGE_GRAVEYARD_TELEPORT": 1889,
  "DRAYNOR_MANOR_TELEPORT": 1897,
  "MIND_ALTAR_TELEPORT": 2021,
  "SALVE_GRAVEYARD_TELEPORT": 1963,
  "FENKENSTRAINS_CASTLE_TELEPORT": 1731,
  "WEST_ARDOUGNE_TELEPORT": 2178,
  "HARMONY_ISLAND_TELEPORT": 2415,
  "CEMETERY_TELEPORT": 2014,
  "BARROWS_TELEPORT": 2718,
  "APE_ATOLL_TELEPORT": 2909,
  "GOLOVANOVA_FRUIT_TOP": 247,
  "UNCOOKED_BOTANICAL_PIE": 2191,
  "BOTANICAL_PIE": 761,
  "DAMAGED_MONKEY_TAIL": 87,
  "REDWOOD_LOGS": 291,
  "REDWOOD_PYRE_LOGS": 2124,
  "JAR_OF_DARKNESS": 5686554,
  "AMULET_OF_ETERNAL_GLORY": 30478090,
  "LEFT_EYE_PATCH": 16407,
  "DOUBLE_EYE_PATCH": 34475,
  "ZOMBIE_HEAD_19912": 2771,
  "CYCLOPS_HEAD": 2891,
  "NUNCHAKU": 3641,
  "ANCIENT_DHIDE_BOOTS": 791154,
  "BANDOS_DHIDE_BOOTS": 786761,
  "GUTHIX_DHIDE_BOOTS": 804692,
  "ARMADYL_DHIDE_BOOTS": 1259757,
  "SARADOMIN_DHIDE_BOOTS": 856585,
  "ZAMORAK_DHIDE_BOOTS": 947232,
  "ARCEUUS_SCARF": 5563,
  "HOSIDIUS_SCARF": 5749,
  "LOVAKENGJ_SCARF": 6100,
  "PISCARILIUS_SCARF": 5393,
  "SHAYZIEN_SCARF": 18263,
  "DARK_TUXEDO_JACKET": 1809196,
  "DARK_TUXEDO_CUFFS": 167876,
  "DARK_TROUSERS": 870161,
  "DARK_TUXEDO_SHOES": 659383,
  "DARK_BOW_TIE": 528314,
  "LIGHT_TUXEDO_JACKET": 2593402,
  "LIGHT_TUXEDO_CUFFS": 129441,
  "LIGHT_TROUSERS": 357079,
  "LIGHT_TUXEDO_SHOES": 699670,
  "LIGHT_BOW_TIE": 236812,
  "BLACKSMITHS_HELM": 30427,
  "BUCKET_HELM": 35932,
  "RANGER_GLOVES": 1960333,
  "HOLY_WRAPS": 898586,
  "DRAGON_SCIMITAR_ORNAMENT_KIT": 1087306,
  "RING_OF_NATURE": 9406874,
  "FANCY_TIARA": 11066,
  "_3RD_AGE_AXE": 416442839,
  "_3RD_AGE_PICKAXE": 785139468,
  "RING_OF_COINS": 15822638,
  "LESSER_DEMON_MASK": 22501,
  "GREATER_DEMON_MASK": 21681,
  "BLACK_DEMON_MASK": 156615,
  "OLD_DEMON_MASK": 80677,
  "JUNGLE_DEMON_MASK": 55930,
  "SAMURAI_KASA": 200357,
  "SAMURAI_SHIRT": 121031,
  "SAMURAI_GLOVES": 279653,
  "SAMURAI_GREAVES": 52907,
  "SAMURAI_BOOTS": 72949,
  "OBSIDIAN_CAPE_R": 2733525,
  "HALF_MOON_SPECTACLES": 58161,
  "ALE_OF_THE_GODS": 1740588,
  "BUCKET_HELM_G": 2013492,
  "TORTURE_ORNAMENT_KIT": 5347951,
  "OCCULT_ORNAMENT_KIT": 3663104,
  "ARMADYL_GODSWORD_ORNAMENT_KIT": 959568,
  "BANDOS_GODSWORD_ORNAMENT_KIT": 4256792,
  "SARADOMIN_GODSWORD_ORNAMENT_KIT": 5231947,
  "ZAMORAK_GODSWORD_ORNAMENT_KIT": 603985,
  "MUMMYS_HEAD": 793055,
  "MUMMYS_BODY": 675574,
  "MUMMYS_HANDS": 240652,
  "MUMMYS_LEGS": 724765,
  "MUMMYS_FEET": 351091,
  "ANKOU_MASK": 11107764,
  "ANKOU_TOP": 22426812,
  "ANKOU_GLOVES": 6259732,
  "ANKOUS_LEGGINGS": 14017604,
  "ANKOU_SOCKS": 4525289,
  "BOWL_WIG": 15728,
  "ARCEUUS_HOOD": 18898,
  "HOSIDIUS_HOOD": 18350,
  "LOVAKENGJ_HOOD": 26785,
  "PISCARILIUS_HOOD": 13707,
  "SHAYZIEN_HOOD": 59407,
  "HOOD_OF_DARKNESS": 112832,
  "ROBE_TOP_OF_DARKNESS": 165680,
  "GLOVES_OF_DARKNESS": 98399,
  "ROBE_BOTTOM_OF_DARKNESS": 134263,
  "BOOTS_OF_DARKNESS": 83332,
  "DRAGON_DEFENDER_ORNAMENT_KIT": 1167168,
  "GILDED_MED_HELM": 214140,
  "GILDED_CHAINBODY": 875925,
  "GILDED_SQ_SHIELD": 371075,
  "GILDED_2H_SWORD": 2636373,
  "GILDED_SPEAR": 68539,
  "GILDED_HASTA": 152181,
  "WOODEN_SHIELD_G": 48774,
  "STEEL_PLATEBODY_G": 17308,
  "STEEL_PLATELEGS_G": 30563,
  "STEEL_PLATESKIRT_G": 7753,
  "STEEL_FULL_HELM_G": 14213,
  "STEEL_KITESHIELD_G": 23712,
  "STEEL_PLATEBODY_T": 10101,
  "STEEL_PLATELEGS_T": 4204,
  "STEEL_PLATESKIRT_T": 1740,
  "STEEL_FULL_HELM_T": 6463,
  "STEEL_KITESHIELD_T": 15269,
  "MONKS_ROBE_TOP_G": 4547865,
  "MONKS_ROBE_G": 1014765,
  "GOLDEN_CHEFS_HAT": 398243,
  "GOLDEN_APRON": 131661,
  "TEAM_CAPE_ZERO": 2602382,
  "TEAM_CAPE_X": 1381060,
  "TEAM_CAPE_I": 1407078,
  "HOLY_BLESSING": 10666,
  "UNHOLY_BLESSING": 66375,
  "PEACEFUL_BLESSING": 4962,
  "HONOURABLE_BLESSING": 5355,
  "WAR_BLESSING": 9334,
  "ANCIENT_BLESSING": 6121,
  "CHARGE_DRAGONSTONE_JEWELLERY_SCROLL": 293,
  "CRIER_COAT": 6573,
  "CRIER_BELL": 3474,
  "BLACK_LEPRECHAUN_HAT": 2613,
  "ARCEUUS_BANNER": 592,
  "HOSIDIUS_BANNER": 3053,
  "LOVAKENGJ_BANNER": 493,
  "PISCARILIUS_BANNER": 690,
  "SHAYZIEN_BANNER": 618,
  "BLACK_UNICORN_MASK": 16622,
  "WHITE_UNICORN_MASK": 15336,
  "CABBAGE_ROUND_SHIELD": 4092,
  "GNOMISH_FIRELIGHTER": 730,
  "STEEL_TRIMMED_SET_LG": 48354,
  "STEEL_TRIMMED_SET_SK": 66415,
  "STEEL_GOLD_TRIMMED_SET_LG": 105167,
  "STEEL_GOLD_TRIMMED_SET_SK": 124844,
  "ADAMANT_ARROW_20388": 58,
  "DRAGON_ARROW_20389": 818,
  "EVIL_CHICKEN_FEET": 1010702,
  "EVIL_CHICKEN_WINGS": 432412,
  "EVIL_CHICKEN_HEAD": 784908,
  "EVIL_CHICKEN_LEGS": 2406336,
  "ELDER_CHAOS_TOP": 755925,
  "ELDER_CHAOS_ROBE": 377986,
  "ROPE_20587": 52,
  "STALE_BAGUETTE": 384114,
  "ELDER_CHAOS_HOOD": 612802,
  "RUNE_ARROW_20600": 91,
  "TOME_OF_FIRE_EMPTY": 670337,
  "BURNT_PAGE": 5622,
  "IMBUED_HEART": 21552375,
  "LEAF_BLADED_BATTLEAXE": 110920,
  "MIST_BATTLESTAFF": 110612,
  "MYSTIC_MIST_STAFF": 146990,
  "DUST_BATTLESTAFF": 25877,
  "MYSTIC_DUST_STAFF": 60831,
  "ZAMORAKS_GRAPES": 7469,
  "HILL_GIANT_CLUB": 552466,
  "DRAGON_THROWNAXE": 344,
  "TWISTED_BOW": 1146742951,
  "TWISTED_BUCKLER": 6930101,
  "ELDER_MAUL": 14354889,
  "KODAI_WAND": 81399995,
  "DRAGON_SWORD": 89644,
  "DRAGON_HUNTER_CROSSBOW": 111958399,
  "DINHS_BULWARK": 6796413,
  "ANCESTRAL_HAT": 16199946,
  "ANCESTRAL_ROBE_TOP": 68702894,
  "ANCESTRAL_ROBE_BOTTOM": 61866240,
  "DRAGON_HARPOON": 541548,
  "DEXTEROUS_PRAYER_SCROLL": 55959584,
  "KODAI_INSIGNIA": 73961845,
  "TORN_PRAYER_SCROLL": 46265,
  "ANCESTRAL_ROBES_SET": 146770547,
  "ARCANE_PRAYER_SCROLL": 4633845,
  "OPAL_RING": 740,
  "JADE_RING": 891,
  "TOPAZ_RING": 2233,
  "OPAL_NECKLACE": 716,
  "JADE_NECKLACE": 889,
  "TOPAZ_NECKLACE": 1281,
  "OPAL_AMULET_U": 438,
  "JADE_AMULET_U": 804,
  "TOPAZ_AMULET_U": 3999,
  "OPAL_AMULET": 377,
  "JADE_AMULET": 825,
  "TOPAZ_AMULET": 3922,
  "OPAL_BRACELET": 545,
  "JADE_BRACELET": 595,
  "TOPAZ_BRACELET": 3520,
  "RING_OF_PURSUIT": 644,
  "RING_OF_RETURNING_5": 672,
  "EFARITAYS_AID": 2181,
  "DODGY_NECKLACE": 943,
  "NECKLACE_OF_FAITH": 639,
  "AMULET_OF_BOUNTY": 381,
  "AMULET_OF_CHEMISTRY": 1086,
  "EXPEDITIOUS_BRACELET": 951,
  "FLAMTAER_BRACELET": 835,
  "BRACELET_OF_SLAUGHTER": 4204,
  "LAVA_STAFF_UPGRADE_KIT": 63449,
  "DRAGON_THROWNAXE_21207": 344,
  "SLAYERS_ENCHANTMENT": 1011,
  "ETERNAL_GEM": 6227124,
  "OBSIDIAN_ARMOUR_SET": 3062936,
  "OBSIDIAN_HELMET": 767260,
  "OBSIDIAN_PLATEBODY": 1262596,
  "OBSIDIAN_PLATELEGS": 986670,
  "AMETHYST_BROAD_BOLTS": 272,
  "AMETHYST_JAVELIN": 568,
  "AMETHYST_JAVELIN_P": 602,
  "AMETHYST_JAVELIN_P_PLUS": 598,
  "AMETHYST_JAVELIN_P_PLUS_PLUS": 937,
  "AMETHYST_ARROW": 195,
  "AMETHYST_ARROW_P": 297,
  "AMETHYST_ARROW_P_PLUS": 602,
  "AMETHYST_ARROW_P_PLUS_PLUS": 1351,
  "AMETHYST_BOLT_TIPS": 220,
  "AMETHYST": 3381,
  "AMETHYST_ARROWTIPS": 227,
  "AMETHYST_JAVELIN_HEADS": 679,
  "MASTER_SCROLL_BOOK_EMPTY": 14886,
  "TEAK_SAPLING": 296,
  "MAHOGANY_SAPLING": 6139,
  "ULTRACOMPOST": 693,
  "TEAK_SEED": 79,
  "MAHOGANY_SEED": 5669,
  "SEAWEED_SPORE": 578,
  "GIANT_SEAWEED": 487,
  "BIRD_HOUSE": 572,
  "OAK_BIRD_HOUSE": 629,
  "WILLOW_BIRD_HOUSE": 825,
  "TEAK_BIRD_HOUSE": 1058,
  "CALCITE": 33,
  "PYROPHOSPHITE": 80,
  "NUMULITE": 12,
  "VOLCANIC_ASH": 70,
  "SULLIUSCEP_CAP": 2234,
  "ANCIENT_WYVERN_SHIELD_21634": 16321582,
  "WYVERN_VISAGE": 15685034,
  "GRANITE_BOOTS": 1618872,
  "GRANITE_LONGSWORD": 82048,
  "MERFOLK_TRIDENT": 374145,
  "DRIFT_NET": 2243,
  "UNCOOKED_MUSHROOM_PIE": 4728,
  "MUSHROOM_PIE": 3095,
  "BLACK_TOURMALINE_CORE": 5643089,
  "GUARDIAN_BOOTS": 5914031,
  "GRANITE_GLOVES": 407987,
  "GRANITE_RING": 42027,
  "GRANITE_HAMMER": 1728514,
  "JAR_OF_STONE": 2109689,
  "ROCK_THROWNHAMMER": 254,
  "REVENANT_CAVE_TELEPORT": 28395,
  "ANCIENT_CRYSTAL": 151949,
  "ANCIENT_EMBLEM": 494875,
  "ANCIENT_TOTEM": 987981,
  "ANCIENT_STATUETTE": 1985214,
  "BRACELET_OF_ETHEREUM_UNCHARGED": 43951,
  "REVENANT_ETHER": 175,
  "SHAMAN_MASK": 8054,
  "WRATH_RUNE": 436,
  "DRAGON_ARMOUR_SET_LG": 87526072,
  "DRAGON_ARMOUR_SET_SK": 44726284,
  "DRAGON_PLATEBODY": 6067898,
  "DRAGON_KITESHIELD": 42187101,
  "DRAGON_CROSSBOW": 4538722,
  "DRAGON_BOLTS": 1348,
  "DRAGON_LIMBS": 4498145,
  "DRAGON_CROSSBOW_U": 6098544,
  "DRAGON_BOLTS_P": 1153,
  "DRAGON_BOLTS_P_PLUS": 1107,
  "DRAGON_BOLTS_P_PLUS_PLUS": 2410,
  "DRAGON_BOLTS_UNF": 1320,
  "OPAL_DRAGON_BOLTS_E": 1461,
  "JADE_DRAGON_BOLTS_E": 1072,
  "PEARL_DRAGON_BOLTS_E": 1401,
  "TOPAZ_DRAGON_BOLTS_E": 1577,
  "SAPPHIRE_DRAGON_BOLTS_E": 1599,
  "EMERALD_DRAGON_BOLTS_E": 1577,
  "RUBY_DRAGON_BOLTS_E": 1579,
  "DIAMOND_DRAGON_BOLTS_E": 1600,
  "DRAGONSTONE_DRAGON_BOLTS_E": 1481,
  "ONYX_DRAGON_BOLTS_E": 9330,
  "MAGIC_STOCK": 113,
  "OPAL_DRAGON_BOLTS": 1621,
  "JADE_DRAGON_BOLTS": 1706,
  "PEARL_DRAGON_BOLTS": 1382,
  "TOPAZ_DRAGON_BOLTS": 1800,
  "SAPPHIRE_DRAGON_BOLTS": 1484,
  "EMERALD_DRAGON_BOLTS": 1591,
  "RUBY_DRAGON_BOLTS": 1496,
  "DIAMOND_DRAGON_BOLTS": 1578,
  "DRAGONSTONE_DRAGON_BOLTS": 1604,
  "ONYX_DRAGON_BOLTS": 9993,
  "CRUSHED_SUPERIOR_DRAGON_BONES": 11896,
  "SUPER_ANTIFIRE_POTION_4": 10968,
  "SUPER_ANTIFIRE_POTION_3": 8913,
  "SUPER_ANTIFIRE_POTION_2": 6134,
  "SUPER_ANTIFIRE_POTION_1": 3012,
  "SUPER_ANTIFIRE_MIX_2": 802,
  "SUPER_ANTIFIRE_MIX_1": 350,
  "DRAGONFIRE_WARD_22003": 35117263,
  "SKELETAL_VISAGE": 37013720,
  "SWAMP_PASTE_22095": 83,
  "DRAGON_METAL_SHARD": 1790244,
  "DRAGON_METAL_SLICE": 2427022,
  "DRAGON_METAL_LUMP": 4239001,
  "JAR_OF_DECAY": 107283,
  "DRAGONBONE_NECKLACE": 114569,
  "WRATH_TALISMAN": 762,
  "WRATH_TIARA": 1028,
  "SUPERIOR_DRAGON_BONES": 11258,
  "MAPLE_BIRD_HOUSE": 822,
  "MAHOGANY_BIRD_HOUSE": 1322,
  "YEW_BIRD_HOUSE": 1303,
  "MAGIC_BIRD_HOUSE": 1630,
  "REDWOOD_BIRD_HOUSE": 799,
  "WRATH_RUNE_22208": 436,
  "EXTENDED_SUPER_ANTIFIRE_4": 11524,
  "EXTENDED_SUPER_ANTIFIRE_3": 9159,
  "EXTENDED_SUPER_ANTIFIRE_2": 6131,
  "EXTENDED_SUPER_ANTIFIRE_1": 2915,
  "EXTENDED_SUPER_ANTIFIRE_MIX_2": 1253,
  "EXTENDED_SUPER_ANTIFIRE_MIX_1": 414,
  "DRAGON_BOOTS_ORNAMENT_KIT": 167226,
  "DRAGON_PLATEBODY_ORNAMENT_KIT": 20466619,
  "DRAGON_KITESHIELD_ORNAMENT_KIT": 3882189,
  "ANGUISH_ORNAMENT_KIT": 11047355,
  "OAK_SHIELD": 4,
  "WILLOW_SHIELD": 32,
  "MAPLE_SHIELD": 21,
  "YEW_SHIELD": 209,
  "MAGIC_SHIELD": 515,
  "REDWOOD_SHIELD": 407,
  "HARD_LEATHER_SHIELD": 114,
  "SNAKESKIN_SHIELD": 297,
  "GREEN_DHIDE_SHIELD": 3063,
  "BLUE_DHIDE_SHIELD": 4206,
  "RED_DHIDE_SHIELD": 6676,
  "BLACK_DHIDE_SHIELD": 19607,
  "UNCHARGED_TRIDENT_E": 5041209,
  "UNCHARGED_TOXIC_TRIDENT_E": 8709771,
  "STAFF_OF_LIGHT": 7440387,
  "ANCIENT_MEDALLION": 3955190,
  "ANCIENT_EFFIGY": 7958514,
  "ANCIENT_RELIC": 15924643,
  "GHRAZI_RAPIER": 187271659,
  "JUSTICIAR_FACEGUARD": 33580193,
  "JUSTICIAR_CHESTGUARD": 17558227,
  "JUSTICIAR_LEGGUARDS": 23627124,
  "BRYOPHYTAS_STAFF_UNCHARGED": 2862311,
  "BRYOPHYTAS_ESSENCE": 196932,
  "BLOODY_BRACER": 1635,
  "JUSTICIAR_ARMOUR_SET": 75124335,
  "CADANTINE_BLOOD_POTION_UNF": 5149,
  "VIAL_OF_BLOOD": 3087,
  "BATTLEMAGE_POTION_4": 4939,
  "BATTLEMAGE_POTION_3": 3902,
  "BATTLEMAGE_POTION_2": 2330,
  "BATTLEMAGE_POTION_1": 1308,
  "BASTION_POTION_4": 6912,
  "BASTION_POTION_3": 4899,
  "BASTION_POTION_2": 3414,
  "BASTION_POTION_1": 1627,
  "AVERNIC_DEFENDER_HILT": 84654240,
  "SANGUINESTI_STAFF_UNCHARGED": 155644885,
  "SCYTHE_OF_VITUR_UNCHARGED": 1417465620,
  "VIGGORAS_CHAINMACE_U": 5791091,
  "CRAWS_BOW_U": 23687327,
  "THAMMARONS_SCEPTRE_U": 1429262,
  "AMULET_OF_AVARICE": 124282,
  "TE_SALT": 94,
  "EFH_SALT": 95,
  "URT_SALT": 99,
  "ICY_BASALT": 1109,
  "STONY_BASALT": 1139,
  "BASALT": 912,
  "VESTAS_SPEAR": 10000000,
  "VESTAS_LONGSWORD": 10000000,
  "STATIUSS_WARHAMMER": 10000000,
  "MORRIGANS_THROWING_AXE": 20000,
  "MORRIGANS_JAVELIN": 20000,
  "ZURIELS_STAFF": 10000000,
  "DRAGON_HASTA": 40615,
  "DRAGON_HASTA_P": 65870,
  "DRAGON_HASTA_P_PLUS": 67194,
  "DRAGON_HASTA_P_PLUS_PLUS": 42352,
  "WYRM_BONES": 1252,
  "DRAKE_BONES": 2973,
  "HYDRA_BONES": 5533,
  "UNCOOKED_DRAGONFRUIT_PIE": 2500,
  "DRAGONFRUIT_PIE": 791,
  "DRAGON_KNIFE": 2286,
  "DRAGON_KNIFE_P": 2461,
  "DRAGON_KNIFE_P_PLUS": 2734,
  "DRAGON_KNIFE_P_PLUS_PLUS": 3362,
  "DRAGON_KNIFE_22812": 2286,
  "DRAGON_KNIFE_22814": 2286,
  "FISH_CHUNKS": 19,
  "BLUEGILL": 48,
  "COMMON_TENCH": 68,
  "MOTTLED_EEL": 61,
  "GREATER_SIREN": 54,
  "CELASTRUS_SAPLING": 78804,
  "REDWOOD_SAPLING": 35515,
  "DRAGONFRUIT_SAPLING": 174502,
  "CELASTRUS_SEED": 76837,
  "REDWOOD_TREE_SEED": 31873,
  "POTATO_CACTUS_SEED": 29,
  "DRAGONFRUIT_TREE_SEED": 169995,
  "SNAPE_GRASS_SEED": 923,
  "WHITE_LILY_SEED": 5245,
  "DRAGONFRUIT": 637,
  "WHITE_LILY": 1096,
  "CELASTRUS_BARK": 8256,
  "BATTLEFRONT_TELEPORT": 2107,
  "BOOTS_OF_BRIMSTONE": 971545,
  "DEVOUT_BOOTS": 684212,
  "DRAKES_CLAW": 909513,
  "DRAKES_TOOTH": 60423,
  "BROKEN_DRAGON_HASTA": 37196,
  "HYDRAS_CLAW": 39424865,
  "BRIMSTONE_RING": 6727196,
  "DRAGON_HUNTER_LANCE": 92306875,
  "HYDRA_LEATHER": 7015456,
  "HYDRA_TAIL": 164100,
  "BOTTOMLESS_COMPOST_BUCKET": 945783,
  "BOTTLED_DRAGONBREATH_UNPOWERED": 11866,
  "BOTTLED_DRAGONBREATH": 7892,
  "BOOTS_OF_STONE": 279,
  "MYSTIC_HAT_DUSK": 55293,
  "MYSTIC_ROBE_TOP_DUSK": 286279,
  "MYSTIC_ROBE_BOTTOM_DUSK": 202050,
  "MYSTIC_GLOVES_DUSK": 31478,
  "MYSTIC_BOOTS_DUSK": 126042,
  "JAR_OF_CHEMICALS": 160616,
  "MYSTIC_SET_LIGHT": 164557,
  "MYSTIC_SET_BLUE": 151928,
  "MYSTIC_SET_DARK": 284736,
  "MYSTIC_SET_DUSK": 762961,
  "GILDED_DRAGONHIDE_SET": 56800000,
  "RING_OF_3RD_AGE": 33820254,
  "GUTHIX_DHIDE_SHIELD": 711516,
  "SARADOMIN_DHIDE_SHIELD": 1092345,
  "ZAMORAK_DHIDE_SHIELD": 1382040,
  "ANCIENT_DHIDE_SHIELD": 900618,
  "ARMADYL_DHIDE_SHIELD": 1592818,
  "BANDOS_DHIDE_SHIELD": 723724,
  "DUAL_SAI": 145516,
  "RUNE_PLATEBODY_H1": 187933,
  "RUNE_PLATEBODY_H2": 159137,
  "RUNE_PLATEBODY_H3": 161890,
  "RUNE_PLATEBODY_H4": 155816,
  "RUNE_PLATEBODY_H5": 199119,
  "THIEVING_BAG": 131285,
  "RUNE_DEFENDER_ORNAMENT_KIT": 466949,
  "TZHAAR_KET_OM_ORNAMENT_KIT": 253935,
  "BERSERKER_NECKLACE_ORNAMENT_KIT": 257372,
  "_3RD_AGE_PLATESKIRT": 123121187,
  "FREMENNIK_KILT": 11476069,
  "RANGERS_TIGHTS": 9162916,
  "GIANT_BOOT": 1841152,
  "URIS_HAT": 495539,
  "GILDED_COIF": 5174300,
  "GILDED_DHIDE_VAMBS": 8527907,
  "GILDED_DHIDE_BODY": 15014723,
  "GILDED_DHIDE_CHAPS": 36874664,
  "ADAMANT_DRAGON_MASK": 72846,
  "RUNE_DRAGON_MASK": 96911,
  "GILDED_PICKAXE": 48309814,
  "GILDED_AXE": 16965515,
  "GILDED_SPADE": 21998195,
  "MOLE_SLIPPERS": 151203,
  "FROG_SLIPPERS": 93108,
  "BEAR_FEET": 46718,
  "DEMON_FEET": 112636,
  "JESTER_CAPE": 138978,
  "SHOULDER_PARROT": 761506,
  "MONKS_ROBE_TOP_T": 185641,
  "MONKS_ROBE_T": 108409,
  "AMULET_OF_DEFENCE_T": 45942,
  "SANDWICH_LADY_HAT": 37954,
  "SANDWICH_LADY_TOP": 64856,
  "SANDWICH_LADY_BOTTOM": 28625,
  "RUNE_SCIMITAR_ORNAMENT_KIT_GUTHIX": 162757,
  "RUNE_SCIMITAR_ORNAMENT_KIT_SARADOMIN": 265873,
  "RUNE_SCIMITAR_ORNAMENT_KIT_ZAMORAK": 427861,
  "_3RD_AGE_DRUIDIC_ROBE_TOP": 1000000000,
  "_3RD_AGE_DRUIDIC_ROBE_BOTTOMS": 500000000,
  "_3RD_AGE_DRUIDIC_STAFF": 500000000,
  "_3RD_AGE_DRUIDIC_CLOAK": 600000000,
  "TORMENTED_ORNAMENT_KIT": 26980462,
  "CAPE_OF_SKULLS": 17266780,
  "AMULET_OF_POWER_T": 1239547,
  "RAIN_BOW": 763866,
  "HAM_JOINT": 4495577,
  "STAFF_OF_BOB_THE_CAT": 112454,
  "BLACK_PLATEBODY_H1": 36822,
  "BLACK_PLATEBODY_H2": 31155,
  "BLACK_PLATEBODY_H3": 34588,
  "BLACK_PLATEBODY_H4": 30656,
  "BLACK_PLATEBODY_H5": 30458,
  "LEATHER_BODY_G": 370028,
  "LEATHER_CHAPS_G": 64497,
  "WATSON_TELEPORT": 1756,
  "SPIKED_MANACLES": 2516000,
  "ADAMANT_PLATEBODY_H1": 21972,
  "ADAMANT_PLATEBODY_H2": 22457,
  "ADAMANT_PLATEBODY_H3": 22862,
  "ADAMANT_PLATEBODY_H4": 22657,
  "ADAMANT_PLATEBODY_H5": 21969,
  "WOLF_MASK": 97649,
  "WOLF_CLOAK": 159327,
  "CLIMBING_BOOTS_G": 136533,
  "GRUBBY_KEY": 43159,
  "GIANT_EGG_SAC_FULL": 7396,
  "MASK_OF_RANUL": 45456,
  "JAR_OF_EYES": 846299,
  "SARACHNIS_CUDGEL": 744458,
  "COOKED_KARAMBWAN_23533": 523,
  "SUPER_COMBAT_POTION_4_23543": 9149,
  "SUPER_COMBAT_POTION_3_23545": 6981,
  "SUPER_COMBAT_POTION_2_23547": 4696,
  "SUPER_COMBAT_POTION_1_23549": 2336,
  "RANGING_POTION_4_23551": 770,
  "RANGING_POTION_3_23553": 552,
  "RANGING_POTION_2_23555": 408,
  "RANGING_POTION_1_23557": 205,
  "SANFEW_SERUM_4_23559": 18026,
  "SANFEW_SERUM_3_23561": 12676,
  "SANFEW_SERUM_2_23563": 8317,
  "SANFEW_SERUM_1_23565": 4415,
  "SUPER_RESTORE_4_23567": 10726,
  "SUPER_RESTORE_3_23569": 7885,
  "SUPER_RESTORE_2_23571": 5133,
  "SUPER_RESTORE_1_23573": 2580,
  "SARADOMIN_BREW_4_23575": 3474,
  "SARADOMIN_BREW_3_23577": 2557,
  "SARADOMIN_BREW_2_23579": 1654,
  "SARADOMIN_BREW_1_23581": 848,
  "STAMINA_POTION_4_23583": 5223,
  "STAMINA_POTION_3_23585": 3914,
  "STAMINA_POTION_2_23587": 2660,
  "STAMINA_POTION_1_23589": 1327,
  "HELM_OF_NEITIZNOT_23591": 49447,
  "BERSERKER_RING_23595": 2752696,
  "SPIRIT_SHIELD_23599": 185707,
  "RUNE_CROSSBOW_23601": 10012,
  "ARMADYL_CROSSBOW_23611": 23956362,
  "STAFF_OF_THE_DEAD_23613": 8860526,
  "VESTAS_LONGSWORD_23615": 10000000,
  "ZURIELS_STAFF_23617": 10000000,
  "MORRIGANS_JAVELIN_23619": 20000,
  "STATIUSS_WARHAMMER_23620": 10000000,
  "KODAI_WAND_23626": 88966675,
  "GHRAZI_RAPIER_23628": 180060761,
  "HEAVY_BALLISTA_23630": 593468,
  "AMULET_OF_FURY_23640": 2365796,
  "BLESSED_SPIRIT_SHIELD_23642": 1234425,
  "ETERNAL_BOOTS_23644": 4033916,
  "BANDOS_TASSETS_23646": 27251373,
  "DRAGON_JAVELIN_23648": 897,
  "DIAMOND_BOLTS_E_23649": 304,
  "DRAGONSTONE_ARMOUR_SET": 13200152,
  "DIVINE_SUPER_COMBAT_POTION_4": 16032,
  "DIVINE_SUPER_COMBAT_POTION_3": 13219,
  "DIVINE_SUPER_COMBAT_POTION_2": 8892,
  "DIVINE_SUPER_COMBAT_POTION_1": 4488,
  "DIVINE_SUPER_ATTACK_POTION_4": 8459,
  "DIVINE_SUPER_ATTACK_POTION_3": 10945,
  "DIVINE_SUPER_ATTACK_POTION_2": 7611,
  "DIVINE_SUPER_ATTACK_POTION_1": 3818,
  "DIVINE_SUPER_STRENGTH_POTION_4": 7017,
  "DIVINE_SUPER_STRENGTH_POTION_3": 10988,
  "DIVINE_SUPER_STRENGTH_POTION_2": 7605,
  "DIVINE_SUPER_STRENGTH_POTION_1": 3624,
  "DIVINE_SUPER_DEFENCE_POTION_4": 10347,
  "DIVINE_SUPER_DEFENCE_POTION_3": 11507,
  "DIVINE_SUPER_DEFENCE_POTION_2": 7614,
  "DIVINE_SUPER_DEFENCE_POTION_1": 3813,
  "DIVINE_RANGING_POTION_4": 4894,
  "DIVINE_RANGING_POTION_3": 4345,
  "DIVINE_RANGING_POTION_2": 3627,
  "DIVINE_RANGING_POTION_1": 1753,
  "DIVINE_MAGIC_POTION_4": 4556,
  "DIVINE_MAGIC_POTION_3": 8757,
  "DIVINE_MAGIC_POTION_2": 6308,
  "DIVINE_MAGIC_POTION_1": 3229,
  "ZALCANO_SHARD": 292845,
  "ELVEN_SIGNET": 3734623,
  "ELVEN_DAWN": 9,
  "CRYSTAL_TOOL_SEED": 5613506,
  "CRYSTAL_ARMOUR_SEED": 2017421,
  "ENHANCED_CRYSTAL_TELEPORT_SEED": 1417608,
  "BLADE_OF_SAELDOR_INACTIVE": 102604919,
  "CRYSTAL_GRAIL": 714747,
  "ELVEN_BOOTS": 10792,
  "ELVEN_GLOVES": 3829,
  "ELVEN_LEGWEAR": 6145,
  "DRAGONSTONE_FULL_HELM": 5726120,
  "DRAGONSTONE_PLATEBODY": 8142020,
  "DRAGONSTONE_PLATELEGS": 6481287,
  "DRAGONSTONE_BOOTS": 1387993,
  "DRAGONSTONE_GAUNTLETS": 1417545,
  "STAFF_OF_BALANCE": 12809252,
  "TROUVER_PARCHMENT": 846490,
  "SWIFT_BLADE": 211658,
  "ORNATE_MAUL_HANDLE": 504940,
  "WILDERNESS_CRABS_TELEPORT": 31282,
  "BASILISK_JAW": 5423089,
  "DAGONHAI_HAT": 4200029,
  "DAGONHAI_ROBE_TOP": 5659030,
  "DAGONHAI_ROBE_BOTTOM": 5919480,
  "DAGONHAI_ROBES_SET": 17155769,
  "BOUNTY_TARGET_TELEPORT": 10084,
  "CABBAGE_24367": 28,
  "CABBAGE_24426": 28,
  "TWISTED_TELEPORT_SCROLL": 777225,
  "TWISTED_BLUEPRINTS": 10574479,
  "TWISTED_HORNS": 10670875,
  "TWISTED_RELICHUNTER_T1_ARMOUR_SET": 370705,
  "TWISTED_RELICHUNTER_T2_ARMOUR_SET": 1653205,
  "TWISTED_RELICHUNTER_T3_ARMOUR_SET": 21733575,
  "INQUISITORS_ARMOUR_SET": 136401380,
  "JAR_OF_DREAMS": 1414352,
  "HARMONISED_ORB": 1232766956,
  "VOLATILE_ORB": 449877111,
  "ELDRITCH_ORB": 223493051
}
