{
  "name": "General Store",
  "sellExchangeMultiplier": 1.5,
  "ceilPrice": true,
  "buysItems": true,
  "items": [
    { "id": "ItemId.LOBSTER" },
    { "id": "ItemId.SWORDFISH" },
    { "id": "ItemId.ANCHOVY_PIZZA" },
    { "id": "ItemId.PINEAPPLE_PIZZA" },
    { "id": "ItemId.PURPLE_SWEETS", "price": 5000 },
    { "id": "ItemId.DWARVEN_ROCK_CAKE_7510", "price": 50000 },
    { "id": "ItemId.ATTACK_POTION_4" },
    { "id": "ItemId.STRENGTH_POTION_4" },
    { "id": "ItemId.DEFENCE_POTION_4" },
    { "id": "ItemId.PRAYER_POTION_4", "sellExchangeMultiplier": 1.0 },
    { "id": "ItemId.SUPER_ENERGY_4" },
    { "id": "ItemId.SUPERANTIPOISON_4" },
    { "id": "ItemId.TELEPORT_TO_HOUSE" },
    { "id": "ItemId.VARROCK_TELEPORT" },
    { "id": "ItemId.LUMBRIDGE_TELEPORT" },
    { "id": "ItemId.FALADOR_TELEPORT" },
    { "id": "ItemId.CAMELOT_TELEPORT" },
    { "id": "ItemId.ARDOUGNE_TELEPORT" },
    { "id": "ItemId.TAVERLEY_TELEPORT", "price": 500 },
    { "id": "ItemId.RELLEKKA_TELEPORT", "price": 500 },
    { "id": "ItemId.TROLLHEIM_TELEPORT", "price": 500 },
    { "id": "ItemId.KHARYRLL_TELEPORT" },
    { "id": "ItemId.PADDEWWA_TELEPORT" },
    { "id": "ItemId.HARMONY_ISLAND_TELEPORT" },
    { "id": "ItemId.TELEPORT_CRYSTAL_4", "price": 3000 },
    { "id": "ItemId.CARRALLANGAR_TELEPORT" },
    { "id": "ItemId.DAREEYAK_TELEPORT" },
    { "id": "ItemId.ANNAKARL_TELEPORT" },
    { "id": "ItemId.GHORROCK_TELEPORT" },
    { "id": "ItemId.LUMBERYARD_TELEPORT", "price": 500000 },
    { "id": "ItemId.GAMES_NECKLACE_8" },
    { "id": "ItemId.LOCKPICK" },
    { "id": "ItemId.CLEANING_CLOTH", "price": 50000 }
  ]
}
