{
  "currency": 13204,
  "name": "Platinum Shop",
  "items": [
    {
      "id": "ItemId.PLATINUM_TOKEN",
      "price": 1000,
      "buyPrice": 1000
    },
    { "id": "ItemId.SANTA_HAT", "price": 750000 },
    { "id": "ItemId.PURPLE_PARTYHAT", "price": 600000 },
    { "id": "ItemId.YELLOW_PARTYHAT", "price": 800000 },
    { "id": "ItemId.GREEN_PARTYHAT", "price": 1000000 },
    { "id": "ItemId.RED_PARTYHAT", "price": 2000000 },
    { "id": "ItemId.WHITE_PARTYHAT", "price": 3000000 },
    { "id": "ItemId.BLUE_PARTYHAT", "price": 4000000 }
  ]
}
